<?xml version="1.0" standalone="no"?>
<!DOCTYPE svg PUBLIC "-//W3C//DTD SVG 1.1//EN" "http://www.w3.org/Graphics/SVG/1.1/DTD/svg11.dtd" >
<svg xmlns="http://www.w3.org/2000/svg" xmlns:xlink="http://www.w3.org/1999/xlink" version="1.1">
<metadata></metadata>
<defs>
<font id="trinautica_neue_lt_std45Lt" horiz-adv-x="1138" >
<font-face units-per-em="2048" ascent="1462" descent="-586" />
<missing-glyph horiz-adv-x="569" />
<glyph unicode="&#xfb01;" horiz-adv-x="909" d="M12 948v109h181v96q-1 72 10.5 125.5t39 96.5t79 65t127.5 22q53 0 108 -8v-111q-64 11 -94 11q-40 0 -67 -10.5t-41.5 -25.5t-21.5 -42.5t-8.5 -51t-2.5 -63.5v-12v-92h208v-109h-208v-948h-129v948h-181zM655 0v1057h129v-1057h-129zM655 1255v207h129v-207h-129z" />
<glyph unicode="&#xfb02;" horiz-adv-x="909" d="M12 948v109h181v96q-1 72 10.5 125.5t39 96.5t79 65t127.5 22q53 0 108 -8v-111q-64 11 -94 11q-40 0 -67 -10.5t-41.5 -25.5t-21.5 -42.5t-8.5 -51t-2.5 -63.5v-12v-92h208v-109h-208v-948h-129v948h-181zM655 0v1462h129v-1462h-129z" />
<glyph horiz-adv-x="0" />
<glyph horiz-adv-x="682" />
<glyph unicode=" "  horiz-adv-x="569" />
<glyph unicode="&#x09;" horiz-adv-x="569" />
<glyph unicode="&#xa0;" horiz-adv-x="569" />
<glyph unicode="!" horiz-adv-x="493" d="M162 0v217h172v-217h-172zM178 1026v436h139v-436l-30 -661h-78z" />
<glyph unicode="&#x22;" horiz-adv-x="757" d="M178 965v497h129v-497h-129zM451 965v497h129v-497h-129z" />
<glyph unicode="#" d="M72 457v92h237l45 319h-225v93h238l63 454h102l-63 -454h289l63 454h103l-64 -454h215v-93h-227l-45 -319h215v-92h-227l-64 -457h-102l63 457h-289l-63 -457h-103l64 457h-225zM412 549h288l45 319h-288z" />
<glyph unicode="$" d="M59 467h129q1 -175 88 -272.5t250 -116.5v606q-56 12 -97.5 23.5t-88.5 30t-80.5 39t-66.5 51.5t-53 68t-32 87.5t-12 110.5q0 180 123.5 289.5t306.5 109.5v160h80v-160q184 0 311 -124t123 -320h-129q-1 152 -85.5 243.5t-219.5 91.5v-589q66 -14 116.5 -28.5t109 -37 t99.5 -53.5t76.5 -72t53.5 -98t18 -127q0 -129 -69 -224.5t-175 -141t-229 -44.5v-174h-80v176q-237 23 -347.5 142t-119.5 354zM225 1079q0 -40 9.5 -73t23 -56.5t38.5 -43.5t46.5 -32.5t57.5 -25t60 -19t66 -16.5v571q-132 0 -216.5 -76t-84.5 -229zM606 78 q68 0 127.5 17.5t109 52t78.5 93.5t29 136q0 41 -11 75.5t-28.5 60.5t-46 48.5t-55.5 37t-65.5 28.5t-68 22.5t-69.5 18.5v-590z" />
<glyph unicode="%" horiz-adv-x="1820" d="M141 1059q0 175 80.5 281t245.5 106t245.5 -106t80.5 -281t-80.5 -281t-245.5 -106t-245.5 106t-80.5 281zM250 1057q0 -53 10 -101t33 -93t68 -72t106 -27t106 27t68 72t33 93t10 101q0 42 -6 81.5t-21 79.5t-39 69.5t-62.5 48t-88.5 18.5t-88.5 -18.5t-62.5 -48 t-39 -69.5t-21 -79.5t-6 -81.5zM389 -70l928 1555h96l-926 -1555h-98zM1040 356q0 175 80.5 281t245.5 106t245.5 -106t80.5 -281t-80.5 -281t-245.5 -106t-245.5 106t-80.5 281zM1149 354q0 -53 10 -101t33 -93t68 -72t106 -27t106 27t68 72t33 93t10 101q0 42 -6 81.5 t-21 79.5t-39 69.5t-62.5 48t-88.5 18.5t-88.5 -18.5t-62.5 -48t-39 -69.5t-21 -79.5t-6 -81.5z" />
<glyph unicode="&#x26;" horiz-adv-x="1251" d="M80 379q0 242 358 434q-6 7 -40 50.5t-44 57.5t-35 52.5t-34 62.5t-18 59.5t-9 69.5q0 131 94 214t230 83t229.5 -83t93.5 -214q0 -53 -17 -101t-41.5 -84t-65.5 -73.5t-76.5 -63t-86.5 -57.5l320 -385q25 52 34 105.5t9 140.5h129q0 -76 -20 -170.5t-66 -179.5l246 -297 h-162l-156 190q-82 -103 -193 -162t-237 -59q-195 0 -318.5 108.5t-123.5 301.5zM209 367q0 -126 94 -207.5t223 -81.5q103 0 191.5 57t154.5 152l-364 442q-48 -26 -85.5 -50t-79.5 -59.5t-69.5 -71.5t-46 -83t-18.5 -98zM387 1165q0 -17 3 -34t11 -36t14 -34t20 -36 t21 -32.5t25 -34.5t23.5 -30.5t24.5 -31t22 -26.5q46 28 79.5 54t70 63t56 82.5t19.5 95.5q0 88 -55.5 138.5t-138.5 50.5t-139 -50.5t-56 -138.5z" />
<glyph unicode="'" horiz-adv-x="569" d="M221 965v497h129v-497h-129z" />
<glyph unicode="(" horiz-adv-x="493" d="M104 545q0 500 289 948h103q-263 -421 -263 -995q0 -219 72 -456.5t191 -432.5h-103q-145 240 -217 460.5t-72 475.5z" />
<glyph unicode=")" horiz-adv-x="493" d="M-2 -391q262 419 262 995q0 219 -71.5 457t-190.5 432h102q145 -240 217 -460.5t72 -475.5q0 -500 -289 -948h-102z" />
<glyph unicode="*" horiz-adv-x="720" d="M55 1219l29 75l235 -84v252h80v-252l236 84l31 -75l-242 -80l147 -201l-65 -47l-150 205l-149 -205l-66 47l150 201z" />
<glyph unicode="+" horiz-adv-x="1228" d="M100 461v108h461v461h109v-461h460v-108h-460v-461h-109v461h-461z" />
<glyph unicode="," horiz-adv-x="569" d="M190 -193q47 17 72.5 76.5t22.5 116.5h-86v217h172v-219q-2 -97 -48 -175.5t-133 -103.5v88z" />
<glyph unicode="-" horiz-adv-x="757" d="M123 504v119h512v-119h-512z" />
<glyph unicode="." horiz-adv-x="569" d="M199 0v217h172v-217h-172z" />
<glyph unicode="/" horiz-adv-x="681" d="M-27 -31l631 1524h105l-625 -1524h-111z" />
<glyph unicode="0" d="M70 707q0 77 5.5 147t20.5 146t38.5 139t62.5 121.5t90 98.5t123 63.5t159 23.5t159 -23.5t123 -63.5t90 -98t63 -121t39 -139t20.5 -145.5t5.5 -146.5t-5.5 -147t-20.5 -146t-39 -139.5t-63 -121.5t-90 -98.5t-123 -64t-159 -23.5t-159 23.5t-123 64t-90 98.5t-62.5 121 t-38.5 139t-20.5 145.5t-5.5 146.5zM199 709q0 -631 370 -631q68 0 123.5 22.5t93.5 58.5t66.5 89t45 107t26.5 120t13 120t3 114t-3 113.5t-13 119t-26.5 119.5t-45 106.5t-66.5 89t-93.5 58.5t-123.5 22q-370 0 -370 -628z" />
<glyph unicode="1" d="M199 1065v92q49 2 72.5 3t64 4.5t60 9t50.5 15.5t47 23.5t36.5 34t32.5 47t23 61.5t17 79h105v-1434h-129v1065h-379z" />
<glyph unicode="2" d="M74 0q2 88 28 163.5t71 134t99.5 108.5t121 96t128 86t128.5 89.5t114 96.5q61 63 90 125t29 145q0 135 -93 214t-229 79q-69 0 -124.5 -21.5t-92.5 -58t-61.5 -88t-35 -109t-9.5 -122.5h-129q-5 229 113.5 368.5t344.5 139.5q127 0 226.5 -44.5t159 -137.5t59.5 -222 q0 -86 -28.5 -162t-83.5 -139t-112.5 -110.5t-136.5 -98.5q-23 -16 -76.5 -49.5t-90 -57t-86 -62t-82 -73t-60 -80t-35.5 -91.5h797v-119h-944z" />
<glyph unicode="3" d="M68 457h129q-6 -172 90 -275.5t268 -103.5q96 0 178.5 35.5t135.5 109.5t53 172q0 146 -97 224.5t-247 78.5h-109v109h109q70 -1 134.5 25.5t110 88t45.5 146.5q0 134 -87.5 202t-225.5 68q-158 0 -243.5 -99t-82.5 -263h-129q2 207 124.5 339t328.5 132q87 0 165 -22 t141 -65t100.5 -114.5t37.5 -163.5q0 -119 -63.5 -204.5t-177.5 -112.5v-4q139 -23 217 -117.5t78 -236.5q0 -136 -69 -237t-180 -150.5t-245 -49.5q-149 0 -262.5 57t-175 169t-51.5 262z" />
<glyph unicode="4" d="M61 356v125l664 953h117v-969h215v-109h-215v-356h-119v356h-662zM178 465h545v780h-4z" />
<glyph unicode="5" d="M74 410h129q4 -148 103.5 -240t248.5 -92q107 0 190 54.5t125.5 143t42.5 193.5q0 159 -103.5 266t-262.5 107q-97 0 -182.5 -44.5t-137.5 -125.5h-110l139 743h717v-119h-627l-92 -475l4 -4q53 62 135.5 97.5t167.5 35.5q219 0 350 -138t131 -357q0 -208 -144.5 -347 t-352.5 -139q-133 0 -238.5 53t-167.5 154t-65 234z" />
<glyph unicode="6" d="M82 731q0 45 3.5 94t16.5 121.5t34 137.5t60 133.5t91 117t131.5 80t175.5 31.5q191 0 304 -94.5t136 -280.5h-129q-18 121 -97.5 193.5t-201.5 72.5q-69 0 -126.5 -22t-98 -59t-71 -89.5t-49 -108.5t-30.5 -121.5t-16 -123t-4 -117.5h4q51 106 155.5 172t225.5 66 q214 0 343.5 -133.5t129.5 -345.5q0 -210 -137 -348t-348 -138q-177 0 -285.5 74t-162.5 241.5t-54 446.5zM238 446q0 -163 90 -265.5t268 -102.5q150 0 247 107.5t97 260.5q0 162 -93.5 270.5t-252.5 108.5q-164 0 -260 -108t-96 -271z" />
<glyph unicode="7" d="M104 1296v119h922v-119q-67 -70 -127 -142.5t-143 -201t-144 -261.5t-109 -317t-57 -374h-139q26 366 160 662.5t430 633.5h-793z" />
<glyph unicode="8" d="M76 401q3 141 81.5 241.5t209.5 125.5v4q-113 34 -173.5 115.5t-60.5 199.5q0 71 25 131.5t67 101.5t98 70t117.5 42.5t126.5 13.5q82 0 158.5 -22t139.5 -64.5t101 -113t38 -159.5q0 -116 -62.5 -199.5t-171.5 -115.5v-4q138 -28 215.5 -125t77.5 -242q0 -85 -25.5 -156 t-71 -121.5t-108 -85.5t-135.5 -52t-154 -17q-102 0 -190.5 27.5t-156.5 79.5t-107 136t-39 189zM205 401q0 -155 103 -239t261 -84q160 0 262.5 83t102.5 240q0 100 -51.5 173t-133 107t-180.5 32q-101 2 -182 -31.5t-131.5 -106t-50.5 -174.5zM262 1087q0 -92 46 -154.5 t113.5 -88t147.5 -23.5q127 -3 216 66t89 200q0 119 -85.5 184.5t-219.5 65.5q-127 0 -217 -66.5t-90 -183.5z" />
<glyph unicode="9" d="M70 961q0 210 136.5 347.5t348.5 137.5q177 0 285.5 -74t162.5 -241.5t54 -446.5q0 -45 -3.5 -94t-16.5 -121.5t-34 -137.5t-60 -133.5t-91 -117t-131.5 -80t-175.5 -31.5q-191 0 -304.5 94.5t-136.5 280.5h129q18 -121 97.5 -193.5t201.5 -72.5q69 0 127 22t98 59 t71 89.5t49.5 108.5t30.5 121.5t16 123t4 117.5h-4q-51 -106 -155.5 -172t-225.5 -66q-213 0 -343 133.5t-130 346.5zM199 969q0 -162 93.5 -270.5t252.5 -108.5q164 0 260 108t96 271t-90 265.5t-268 102.5q-150 0 -247 -107.5t-97 -260.5z" />
<glyph unicode=":" horiz-adv-x="569" d="M199 0v217h172v-217h-172zM199 807v217h172v-217h-172z" />
<glyph unicode=";" horiz-adv-x="569" d="M190 -193q47 17 72.5 76.5t22.5 116.5h-86v217h172v-219q-2 -97 -48 -175.5t-133 -103.5v88zM199 807v217h172v-217h-172z" />
<glyph unicode="&#x3c;" horiz-adv-x="1228" d="M94 463v110l1041 480v-113l-914 -422l914 -422v-112z" />
<glyph unicode="=" horiz-adv-x="1228" d="M100 262v109h1030v-109h-1030zM100 666v108h1030v-108h-1030z" />
<glyph unicode="&#x3e;" horiz-adv-x="1228" d="M94 -16v112l914 422l-914 422v113l1041 -480v-110z" />
<glyph unicode="?" horiz-adv-x="1099" d="M111 1012q2 222 123.5 351.5t340.5 129.5q176 0 296 -103t120 -276q0 -106 -45 -185.5t-133 -162.5q-21 -21 -51.5 -51t-42.5 -41t-31 -33t-24.5 -31t-15.5 -31t-12 -36t-6 -44.5t-5 -58t-2 -73.5h-129q-1 63 2.5 110.5t18.5 90.5t28.5 71t48 67t59 63.5t78.5 74.5 q133 126 133 264q0 121 -85 198.5t-208 77.5q-162 0 -247 -103.5t-82 -268.5h-129zM473 0v217h172v-217h-172z" />
<glyph unicode="@" horiz-adv-x="1638" d="M96 737q0 157 59 297.5t159.5 241t240 159t293.5 58.5q196 0 354 -80t249 -226t91 -331q0 -120 -42 -231.5t-109.5 -190t-153 -125.5t-170.5 -47q-55 0 -93 36t-44 101h-4q-53 -57 -120.5 -96t-139.5 -39q-123 0 -197 85.5t-74 211.5q0 85 22 170t65.5 160.5t101.5 134.5 t135 93t162 34q154 0 217 -172l51 133h108l-196 -590q-56 -170 26 -170q87 0 169 79t130 197t48 232q0 164 -80.5 288.5t-211.5 187.5t-290 63q-141 0 -262.5 -53t-205.5 -144.5t-131.5 -216t-47.5 -264.5q0 -184 84.5 -336t234 -239t332.5 -87q152 0 296 73.5t232 199.5 h105q-91 -167 -265 -266t-368 -99q-216 0 -390.5 101.5t-272 277t-97.5 389.5zM524 571q0 -91 47.5 -144.5t122.5 -53.5q55 0 108 32.5t94 85t72.5 116t48.5 128.5t17 119q0 72 -51 131t-111 59q-75 0 -142 -46.5t-111 -117.5t-69.5 -153.5t-25.5 -155.5z" />
<glyph unicode="A" horiz-adv-x="1290" d="M-14 0l589 1462h156l574 -1462h-150l-178 455h-666l-176 -455h-149zM354 573h576l-283 750z" />
<glyph unicode="B" horiz-adv-x="1366" d="M147 0v1462h619q97 0 177.5 -18.5t148 -58t105.5 -111.5t38 -170q0 -117 -71 -210.5t-183 -117.5v-4q141 -19 225 -116t84 -240q0 -35 -4 -67.5t-17 -75.5t-35 -79.5t-62.5 -73.5t-93.5 -62.5t-133.5 -41.5t-178.5 -16h-619zM287 119h479h10q76 0 138 14q66 15 121 48 t85.5 94t30.5 145q0 138 -100 210t-285 72h-479v-583zM287 821h479q160 0 245 69.5t85 178.5q0 274 -330 274h-479v-522z" />
<glyph unicode="C" horiz-adv-x="1441" d="M78 731q0 152 44 287.5t127.5 242.5t217.5 169.5t301 62.5q141 0 266.5 -53t214.5 -162.5t107 -257.5h-139q-36 165 -160.5 259.5t-288.5 94.5q-112 0 -205.5 -36.5t-156.5 -98t-106.5 -144.5t-63 -174.5t-19.5 -189.5t19.5 -189.5t63 -174.5t106.5 -144.5t156.5 -98 t205.5 -36.5q131 0 234.5 63.5t162 168.5t72.5 237h139q-29 -271 -191 -429.5t-417 -158.5q-167 0 -301 62.5t-217.5 169.5t-127.5 242.5t-44 287.5z" />
<glyph unicode="D" horiz-adv-x="1402" d="M147 0v1462h506q332 -8 502 -191t170 -540t-170 -540t-502 -191h-506zM287 119h297h9q309 0 450 142q143 144 143 470t-143 470q-141 142 -450 142h-9h-297v-1224z" />
<glyph unicode="E" horiz-adv-x="1214" d="M147 0v1462h1010v-119h-870v-528h815v-119h-815v-577h880v-119h-1020z" />
<glyph unicode="F" horiz-adv-x="1099" d="M147 0v1462h928v-119h-788v-528h700v-119h-700v-696h-140z" />
<glyph unicode="G" horiz-adv-x="1517" d="M78 731q0 152 44 287.5t127.5 242.5t217.5 169.5t301 62.5q238 0 404.5 -126t205.5 -359h-139q-7 64 -42.5 128t-94 117.5t-146.5 87t-188 33.5q-112 0 -205.5 -36.5t-156.5 -98t-106.5 -144.5t-63 -174.5t-19.5 -189.5t19.5 -189.5t63 -174.5t106.5 -144.5t156.5 -98 t205.5 -36.5q238 0 374 150q132 145 132 370v17h-498v118h621v-743h-101l-18 266h-4q-70 -150 -204.5 -223.5t-301.5 -73.5t-301 62.5t-217.5 169.5t-127.5 242.5t-44 287.5z" />
<glyph unicode="H" horiz-adv-x="1441" d="M147 0v1462h140v-635h868v635h139v-1462h-139v709h-868v-709h-140z" />
<glyph unicode="I" horiz-adv-x="454" d="M158 0v1462h139v-1462h-139z" />
<glyph unicode="J" horiz-adv-x="1024" d="M43 469h139q0 -7 1 -23q3 -141 31 -211q60 -147 249 -147q158 0 216 85.5t58 293.5v995h140v-1054q0 -228 -97.5 -333.5t-328.5 -105.5q-408 0 -408 490v10z" />
<glyph unicode="K" horiz-adv-x="1327" d="M147 0v1462h140v-786l850 786h188l-653 -604l684 -858h-180l-609 762l-280 -260v-502h-140z" />
<glyph unicode="L" horiz-adv-x="1099" d="M147 0v1462h140v-1343h819v-119h-959z" />
<glyph unicode="M" horiz-adv-x="1705" d="M143 0v1462h205l506 -1282l504 1282h205v-1462h-140v1264h-4l-499 -1264h-132l-501 1264h-4v-1264h-140z" />
<glyph unicode="N" horiz-adv-x="1441" d="M145 0v1462h156l852 -1237h4v1237h139v-1462h-155l-852 1237h-4v-1237h-140z" />
<glyph unicode="O" horiz-adv-x="1517" d="M70 731q0 152 44 287.5t127.5 242.5t217.5 169.5t301 62.5q134 0 247.5 -41t193.5 -112.5t136.5 -168t83.5 -208t27 -232.5t-27 -232.5t-83.5 -208t-136.5 -168t-193.5 -112.5t-247.5 -41q-167 0 -301 62.5t-217.5 169.5t-127.5 242.5t-44 287.5zM209 731 q0 -98 19.5 -189.5t63 -174.5t106.5 -144.5t156.5 -98t205.5 -36.5t204.5 36.5t155.5 98t106.5 144.5t63 174.5t19.5 189.5t-19.5 189.5t-63 174.5t-106.5 144.5t-155.5 98t-204.5 36.5t-205.5 -36.5t-156.5 -98t-106.5 -144.5t-63 -174.5t-19.5 -189.5z" />
<glyph unicode="P" horiz-adv-x="1290" d="M147 0v1462h650q199 0 316.5 -111t117.5 -307t-117.5 -306.5t-316.5 -110.5h-510v-627h-140zM287 745h479q150 0 238 76.5t88 222.5t-88 222.5t-238 76.5h-479v-598z" />
<glyph unicode="Q" horiz-adv-x="1517" d="M70 731q0 152 44 287.5t127.5 242.5t217.5 169.5t301 62.5q134 0 247.5 -41t193.5 -112.5t136.5 -168t83.5 -208t27 -232.5q0 -172 -56.5 -323.5t-164.5 -255.5l209 -160l-70 -86l-227 172q-156 -109 -379 -109q-167 0 -301 62.5t-217.5 169.5t-127.5 242.5t-44 287.5z M209 731q0 -98 19.5 -189.5t63 -174.5t106.5 -144.5t156.5 -98t205.5 -36.5q157 0 270 72l-192 145l71 88l213 -162q93 89 140 221t47 279q0 98 -19.5 189.5t-63 174.5t-106.5 144.5t-155.5 98t-204.5 36.5t-205.5 -36.5t-156.5 -98t-106.5 -144.5t-63 -174.5t-19.5 -189.5z " />
<glyph unicode="R" horiz-adv-x="1366" d="M147 0v1462h670q93 0 172 -23t141 -68t97 -119.5t35 -170.5q0 -143 -74 -244t-211 -128v-4q69 -9 118.5 -37t77.5 -73t42 -98t18 -122q0 -4 3 -66.5t6 -90.5t9.5 -79t19 -84.5t29.5 -54.5h-153q-10 16 -17 38t-11 51t-5.5 46.5t-3.5 52t-2 39.5q-5 80 -10 125.5 t-22.5 112t-46.5 101.5q-29 34 -83 60q-49 23 -115 23h-16h-528v-649h-140zM287 768h520q132 0 223.5 78t91.5 207q0 136 -80.5 213t-234.5 77h-520v-575z" />
<glyph unicode="S" horiz-adv-x="1290" d="M74 481h139v-11q0 -102 34 -176q36 -78 103.5 -122.5t151 -64t188.5 -19.5q62 0 126.5 17t124.5 51t98 93.5t38 135.5q0 59 -26.5 105.5t-74.5 77t-94.5 49t-105.5 32.5l-325 80q-56 14 -101 31t-89 46t-73.5 65.5t-48 90t-18.5 119.5q0 48 12 98t47 108t89 102.5t146 74 t210 29.5q87 0 167 -18.5t148.5 -56t118.5 -90.5q51 -54 79 -128q28 -72 27 -156v-6h-139q-4 107 -61 185t-144.5 114.5t-193.5 36.5q-75 0 -138 -15.5t-116 -48t-83 -91t-30 -136.5q0 -95 59.5 -146.5t161.5 -76.5l357 -88q85 -23 147.5 -50.5t118 -71.5t84.5 -110t29 -153 q0 -27 -3.5 -55t-17 -71t-36.5 -81t-65.5 -78t-99.5 -68t-144 -46.5t-194 -18.5q-132 0 -239.5 30.5t-187.5 91.5t-121 161q-36 87 -36 196q0 16 1 33z" />
<glyph unicode="T" d="M-10 1343v119h1159v-119h-510v-1343h-139v1343h-510z" />
<glyph unicode="U" horiz-adv-x="1402" d="M133 526v936h139v-905q-1 -246 108.5 -357.5t319.5 -111.5q211 0 321 111.5t109 357.5v905h140v-936q0 -92 -20 -173.5t-63.5 -152.5t-109 -122t-162 -80t-215.5 -29t-214.5 29t-160.5 80t-109 122t-63.5 152t-19.5 174z" />
<glyph unicode="V" horiz-adv-x="1214" d="M-14 1462h149l475 -1308h4l471 1308h148l-543 -1462h-162z" />
<glyph unicode="W" horiz-adv-x="1857" d="M0 1462h150l331 -1280h4l357 1280h174l358 -1280h4l334 1280h139l-403 -1462h-148l-370 1309h-4l-369 -1309h-151z" />
<glyph unicode="X" horiz-adv-x="1175" d="M-25 0l527 754l-496 708h164l414 -612l428 612h155l-499 -712l528 -750h-168l-444 645l-451 -645h-158z" />
<glyph unicode="Y" horiz-adv-x="1251" d="M-20 1462h165l482 -741l479 741h166l-578 -860v-602h-139v602z" />
<glyph unicode="Z" horiz-adv-x="1175" d="M10 0v123l963 1220h-897v119h1052v-123l-962 -1220h983v-119h-1139z" />
<glyph unicode="[" horiz-adv-x="493" d="M156 -391v1884h329v-109h-200v-1667h200v-108h-329z" />
<glyph unicode="\" horiz-adv-x="681" d="M-27 1493h105l631 -1524h-111z" />
<glyph unicode="]" horiz-adv-x="493" d="M8 -283h201v1667h-201v109h330v-1884h-330v108z" />
<glyph unicode="^" horiz-adv-x="1228" d="M90 487l471 928h107l471 -928h-117l-410 799l-403 -799h-119z" />
<glyph unicode="_" horiz-adv-x="1024" d="M0 -154h1024v-102h-1024v102z" />
<glyph unicode="`" horiz-adv-x="378" d="M-63 1493h159l215 -289h-104z" />
<glyph unicode="a" horiz-adv-x="1062" d="M66 279q0 58 16 104t37.5 77t66 56t77 38.5t98 26t100.5 17.5t111 13q41 5 61 7q91 10 128.5 36.5t37.5 107.5q0 63 -21 107t-61 67t-87 33t-108 10q-126 0 -202.5 -61t-79.5 -185h-129q9 179 123.5 266.5t304.5 87.5q389 0 389 -339v-562q0 -77 76 -77q20 0 40 8v-109 q-39 -8 -83 -8q-91 0 -121.5 45t-30.5 139h-4q-73 -112 -157 -163.5t-228 -51.5q-155 0 -254.5 79t-99.5 231zM195 287q0 -93 70 -151t165 -58q154 0 262 91t107 241v168h-4q-17 -32 -109 -48q-33 -6 -83.5 -13t-86 -12t-81.5 -14.5t-77.5 -19.5t-64.5 -26.5t-53 -37.5 t-32.5 -51.5t-12.5 -68.5z" />
<glyph unicode="b" horiz-adv-x="1175" d="M123 0v1462h129v-606h4q40 110 141.5 170.5t225.5 60.5q117 0 209.5 -45t149.5 -123t86.5 -177.5t29.5 -213.5t-29.5 -213.5t-86.5 -177.5t-149.5 -123t-209.5 -45q-128 0 -230.5 62.5t-146.5 169.5h-4v-201h-119zM252 528q0 -86 20 -163t62 -143t116 -105t173 -39 q71 0 130 26t98.5 69.5t66.5 102t39 121.5t12 131t-12 131.5t-39 122t-66.5 102t-98.5 69.5t-130 26q-79 0 -143.5 -26t-106 -69.5t-69.5 -102.5t-40 -122t-12 -131z" />
<glyph unicode="c" horiz-adv-x="1062" d="M70 528q0 154 56 279t171 202.5t272 77.5q175 0 291 -93t137 -269h-129q-27 122 -101.5 188t-197.5 66q-90 0 -162 -38.5t-116.5 -103t-68 -144t-23.5 -165.5t23.5 -165.5t68 -143.5t116.5 -102.5t162 -38.5q121 0 208.5 85t99.5 216h129q-26 -191 -143 -300.5 t-294 -109.5q-157 0 -272 77.5t-171 202.5t-56 279z" />
<glyph unicode="d" horiz-adv-x="1175" d="M78 528q0 114 29.5 213.5t86.5 177.5t149.5 123t209.5 45q124 0 225.5 -60.5t141.5 -170.5h4v606h129v-1462h-119v201h-4q-40 -101 -149.5 -166.5t-227.5 -65.5q-117 0 -209.5 45t-149.5 123t-86.5 177.5t-29.5 213.5zM207 528q0 -68 12 -131t39 -121.5t66.5 -102 t98.5 -69.5t130 -26q99 0 173 39t116 105t62 143t20 163q0 68 -12 131t-40 122t-69.5 102.5t-106 69.5t-143.5 26q-71 0 -130 -26t-98.5 -69.5t-66.5 -102t-39 -122t-12 -131.5z" />
<glyph unicode="e" horiz-adv-x="1062" d="M70 528q0 86 17 165.5t54.5 151.5t92 125.5t135 85t178.5 31.5q99 0 179.5 -33.5t134 -90t89.5 -133t50 -160.5q12 -70 13 -145q0 -15 -1 -31h-813q1 -59 13 -116t39 -111.5t66.5 -96t98.5 -67t131 -25.5q135 0 217.5 72t114.5 198h129q-43 -186 -155 -282.5t-306 -96.5 q-122 0 -215.5 44.5t-149.5 122.5t-84 177t-28 215zM199 602h684q-2 74 -26 141.5t-65.5 120t-105 84t-139.5 31.5q-101 0 -178.5 -55t-118.5 -138.5t-51 -183.5z" />
<glyph unicode="f" horiz-adv-x="530" d="M12 948v109h181v96v11q0 65 11 114q11 54 38.5 97t79 65t127.5 22q53 0 108 -8v-111q-64 11 -94 11q-40 0 -67 -10.5t-41.5 -25.5t-21.5 -42.5t-8.5 -51t-2.5 -63.5v-12v-92h208v-109h-208v-948h-129v948h-181z" />
<glyph unicode="g" d="M70 555q0 147 54.5 266.5t164.5 192.5t258 73q112 0 204 -61t132 -152h4v183h129v-971q-1 -122 -26 -213t-79 -158.5t-145.5 -102t-218.5 -34.5q-82 0 -155.5 19t-135.5 56.5t-101 100.5t-46 144h129q20 -109 105.5 -160t203.5 -51q175 0 257.5 100.5t82.5 298.5v143h-4 q-45 -99 -134.5 -158t-201.5 -59q-123 0 -216.5 42t-149.5 117t-83.5 171.5t-27.5 212.5zM199 541q0 -82 21.5 -156t63 -133.5t109.5 -95t154 -35.5q107 0 186 61t116.5 154.5t37.5 204.5q0 64 -11.5 125t-38 118.5t-65 100t-96.5 68.5t-129 26q-89 0 -157.5 -37t-109 -100 t-61 -139.5t-20.5 -161.5z" />
<glyph unicode="h" horiz-adv-x="1099" d="M121 0v1462h129v-588h4q35 95 130 154t208 59q109 0 185.5 -27.5t120 -82t62.5 -127t19 -170.5v-680h-129v659q0 72 -13 127.5t-42.5 100t-83 68.5t-129.5 24q-150 0 -239.5 -102t-92.5 -261v-616h-129z" />
<glyph unicode="i" horiz-adv-x="378" d="M125 0v1057h129v-1057h-129zM125 1255v207h129v-207h-129z" />
<glyph unicode="j" horiz-adv-x="378" d="M-61 -281q30 -3 51 -3q10 0 18 1q69 0 93 39t24 115v1186h129v-1155q0 -64 -10 -113.5t-34 -91.5t-69.5 -65t-111.5 -23q-15 0 -45 2t-45 2v106zM125 1255v207h129v-207h-129z" />
<glyph unicode="k" horiz-adv-x="1024" d="M123 0v1462h129v-917l586 512h172l-451 -391l481 -666h-161l-418 575l-209 -174v-401h-129z" />
<glyph unicode="l" horiz-adv-x="378" d="M125 0v1462h129v-1462h-129z" />
<glyph unicode="m" horiz-adv-x="1705" d="M123 0v1057h119v-178h6q111 208 346 208q109 0 192 -53t111 -153q46 101 136.5 153.5t199.5 52.5q350 0 350 -370v-717h-129v711q0 135 -58 201.5t-192 66.5q-80 0 -138 -31t-89 -86.5t-45 -120t-14 -143.5v-598h-130v717v8q0 111 -52 181q-54 72 -169 73 q-159 0 -236 -106t-79 -283v-590h-129z" />
<glyph unicode="n" horiz-adv-x="1099" d="M121 0v1057h129v-183h4q35 95 130 154t208 59q109 0 185.5 -27.5t120 -82t62.5 -127t19 -170.5v-680h-129v659q0 72 -13 127.5t-42.5 100t-83 68.5t-129.5 24q-150 0 -239.5 -102t-92.5 -261v-616h-129z" />
<glyph unicode="o" d="M70 528q0 154 56 279t171 202.5t272 77.5q118 0 214 -44.5t158 -121.5t95 -177.5t33 -215.5t-33 -215.5t-95 -177.5t-158 -121.5t-214 -44.5q-157 0 -272 77.5t-171 202.5t-56 279zM199 528q0 -86 23.5 -165.5t68 -143.5t116.5 -102.5t162 -38.5t162 38.5t117 102.5 t68.5 143.5t23.5 165.5t-23.5 165.5t-68.5 144t-117 103t-162 38.5t-162 -38.5t-116.5 -103t-68 -144t-23.5 -165.5z" />
<glyph unicode="p" horiz-adv-x="1175" d="M123 -391v1448h119v-201h4q44 107 146.5 169t230.5 62q117 0 209.5 -45t149.5 -123t86.5 -177.5t29.5 -213.5t-29.5 -213.5t-86.5 -177.5t-149.5 -123t-209.5 -45q-124 0 -225.5 61t-141.5 171h-4v-592h-129zM252 528q0 -86 20 -163t62 -143t116 -105t173 -39 q71 0 130 26t98.5 69.5t66.5 102t39 121.5t12 131t-12 131.5t-39 122t-66.5 102t-98.5 69.5t-130 26q-103 0 -177.5 -36t-115.5 -100.5t-59.5 -142t-18.5 -172.5z" />
<glyph unicode="q" horiz-adv-x="1175" d="M78 528q0 114 29.5 213.5t86.5 177.5t149.5 123t209.5 45q118 0 227.5 -65t149.5 -166h4v201h119v-1448h-129v592h-4q-40 -110 -141.5 -171t-225.5 -61q-117 0 -209.5 45t-149.5 123t-86.5 177.5t-29.5 213.5zM207 528q0 -68 12 -131t39 -121.5t66.5 -102t98.5 -69.5 t130 -26q99 0 173 39t116 105t62 143t20 163q0 68 -12 131t-40 122t-69.5 102.5t-106 69.5t-143.5 26q-71 0 -130 -26t-98.5 -69.5t-66.5 -102t-39 -122t-12 -131.5z" />
<glyph unicode="r" horiz-adv-x="645" d="M123 0v1057h119v-248h4q50 129 154 199q96 64 223 64q11 0 22 -1v-129q-13 1 -26 1q-155 -1 -257 -103q-110 -110 -110 -277v-563h-129z" />
<glyph unicode="s" horiz-adv-x="985" d="M63 342h130q7 -127 92.5 -195.5t218.5 -68.5q67 0 129.5 18.5t111 66t48.5 116.5q0 44 -18.5 77t-55 55t-71.5 34.5t-87 25.5l-166 37q-56 15 -96 29.5t-80 37.5t-64.5 51.5t-39.5 70t-15 94.5q0 77 35.5 136.5t94.5 93t127 50t141 16.5q166 0 273.5 -87t113.5 -252h-129 q-4 114 -81.5 172.5t-195.5 58.5q-46 0 -88 -9.5t-79.5 -29.5t-60 -57t-22.5 -86q0 -33 15 -60.5t36 -45.5t54 -33.5t57.5 -23t57.5 -16.5l172 -38q58 -9 109.5 -30t95.5 -55.5t70 -88t26 -119.5q0 -82 -38 -145.5t-101 -100t-135 -54.5t-150 -18q-191 0 -305.5 92.5 t-129.5 280.5z" />
<glyph unicode="t" horiz-adv-x="606" d="M14 948v109h185v317h129v-317h215v-109h-215v-712q0 -71 20 -103.5t84 -36.5q56 0 111 6v-110q-19 0 -57 -2t-58 -2q-130 0 -180 52q-49 50 -49 180v5v723h-185z" />
<glyph unicode="u" horiz-adv-x="1099" d="M121 371v686h129v-688q5 -148 69 -219.5t213 -71.5q64 0 117.5 23.5t90 63.5t62 94.5t37 115.5t11.5 127v555h129v-1057h-119v190h-4q-51 -105 -147.5 -163t-216.5 -58q-371 0 -371 402z" />
<glyph unicode="v" horiz-adv-x="948" d="M4 1057h143l332 -928h4l328 928h133l-395 -1057h-137z" />
<glyph unicode="w" horiz-adv-x="1517" d="M16 1057h138l270 -905h4l258 905h145l259 -905h4l270 905h137l-340 -1057h-141l-260 889h-4l-258 -889h-142z" />
<glyph unicode="x" horiz-adv-x="985" d="M2 0l410 549l-379 508h162l301 -402l295 402h161l-381 -506l412 -551h-164l-332 444l-325 -444h-160z" />
<glyph unicode="y" horiz-adv-x="948" d="M4 1057h137l348 -901l326 901h129l-459 -1219q-30 -72 -52 -111.5t-53.5 -68.5t-71 -39t-101.5 -10q-81 3 -98 10v109q57 -11 88 -11q28 0 50 4.5t40 18t28.5 22.5t25 35.5t19.5 38t21 47.5l45 121z" />
<glyph unicode="z" horiz-adv-x="948" d="M31 0v104l690 844h-643v109h807v-92l-699 -856h727v-109h-882z" />
<glyph unicode="{" horiz-adv-x="681" d="M170 496v108q147 0 147 328v305q0 118 48 187t133 69h102v-109h-41q-59 0 -86 -59t-27 -151v-289q1 -77 -17 -142.5t-44.5 -103.5t-47 -58t-34.5 -28v-4q14 -8 34.5 -28t47 -58t44.5 -103.5t17 -142.5v-289q0 -92 27 -151.5t86 -59.5h41v-108h-102q-85 0 -133 69t-48 187 v303q0 328 -147 328z" />
<glyph unicode="|" horiz-adv-x="454" d="M174 -438v2048h109v-2048h-109z" />
<glyph unicode="}" horiz-adv-x="681" d="M82 -283h41q59 0 86 59.5t27 151.5v289q-1 77 17 142.5t44.5 103.5t47 58t34.5 28v4q-14 8 -34.5 28t-47 58t-44.5 103.5t-17 142.5v289q0 92 -27 151t-86 59h-41v109h102q85 0 133 -69t48 -187v-303q0 -328 147 -328v-108q-147 0 -147 -328v-305q0 -118 -48 -187 t-133 -69h-102v108z" />
<glyph unicode="~" horiz-adv-x="1228" d="M141 461q92 176 256 176q84 0 236 -66q149 -67 201 -67q55 0 95.5 36.5t84.5 104.5l73 -74q-23 -32 -38.5 -52t-41 -46.5t-49.5 -41t-57 -25.5t-70 -11q-38 0 -80.5 11t-71 23t-73.5 34q-48 22 -73.5 32.5t-67.5 21.5t-78 11q-107 0 -172 -141z" />
<glyph unicode="&#xa1;" horiz-adv-x="493" d="M162 840v217h172v-217h-172zM178 31l31 661h78l30 -661v-422h-139v422z" />
<glyph unicode="&#xa2;" d="M111 528q0 223 117 379t325 176v183h80v-179q165 -5 274.5 -98.5t130.5 -263.5h-129q-25 117 -94 183.5t-182 70.5v-901q113 6 193 90.5t92 210.5h129q-25 -184 -136 -294t-278 -116v-207h-80v209q-139 14 -241 93.5t-151.5 199t-49.5 264.5zM240 528q0 -107 33 -200.5 t106 -162.5t174 -85v895q-101 -15 -174 -83.5t-106 -162.5t-33 -201z" />
<glyph unicode="&#xa3;" d="M88 80q229 179 229 381q0 48 -16.5 111.5t-40.5 103.5h-166v65h129q-112 184 -112 330q0 106 39.5 189t106 132.5t148.5 75t173 25.5q226 0 353 -129.5t122 -355.5h-129q0 170 -89.5 273t-256.5 103q-141 0 -239.5 -83t-98.5 -238q0 -63 17 -112t52.5 -111.5t50.5 -98.5 h328v-65h-291q22 -35 35.5 -94t13.5 -105q0 -194 -225 -373l4 -4q118 62 199 62q96 0 209 -41q107 -43 176 -43q62 0 126 32.5t109 82.5l66 -99q-71 -63 -141.5 -94t-157.5 -31q-94 0 -217 39q-119 45 -207 45q-25 0 -47.5 -3.5t-37.5 -7.5t-36.5 -14t-31.5 -16t-35.5 -21 t-36.5 -22z" />
<glyph unicode="&#xa4;" d="M59 279l117 116q-113 135 -113 314q0 175 111 315l-115 115l78 78l115 -115q138 115 319 115q179 0 314 -113l112 113l78 -78l-110 -111q114 -136 114 -319q0 -184 -114 -320l110 -110l-78 -78l-112 112q-131 -112 -314 -112t-319 114l-115 -114zM193 709 q0 -164 110.5 -277t267.5 -113t268 113t111 277q0 163 -110.5 276t-268.5 113q-157 0 -267.5 -112.5t-110.5 -276.5z" />
<glyph unicode="&#xa5;" d="M12 1462h148l407 -747l412 747h141l-432 -747h223v-92h-268l-12 -21v-149h280v-93h-280v-360h-129v360h-277v93h277v149l-13 21h-264v92h217z" />
<glyph unicode="&#xa6;" horiz-adv-x="454" d="M174 -182v512h109v-512h-109zM174 842v512h109v-512h-109z" />
<glyph unicode="&#xa7;" d="M92 690q0 97 63.5 173.5t159.5 113.5q-102 89 -102 223q0 90 51.5 158.5t129.5 101.5t165 33q174 0 276.5 -95.5t102.5 -267.5h-129q5 105 -63.5 179.5t-174.5 74.5q-95 0 -162 -46t-67 -136q0 -62 39 -115.5t101 -94t137 -79.5t150.5 -81.5t137.5 -91t101 -117 t39 -150.5q0 -97 -64 -173.5t-160 -113.5q103 -89 103 -223q0 -90 -51.5 -158.5t-129.5 -101.5t-165 -33q-174 0 -276.5 95.5t-102.5 267.5h129q-5 -106 63 -180t174 -74q96 0 163 46t67 136q0 62 -39 115.5t-101 94t-137 79.5t-150.5 81.5t-137.5 91t-101 117t-39 150.5z M221 694q0 -49 27.5 -96.5t69 -83.5t101 -74.5t113 -66.5t115 -62.5t98.5 -60.5q173 72 173 221q0 61 -37 116.5t-101 100t-128 80t-142.5 77t-120.5 70.5q-168 -70 -168 -221z" />
<glyph unicode="&#xa8;" horiz-adv-x="378" d="M-61 1239v207h139v-207h-139zM301 1239v207h139v-207h-139z" />
<glyph unicode="&#xa9;" horiz-adv-x="1638" d="M57 731q0 158 59 299t160.5 242.5t242.5 161t300 59.5t300 -59.5t242.5 -161t160.5 -242.5t59 -299t-59 -299t-160.5 -242.5t-242.5 -161t-300 -59.5t-300 59.5t-242.5 161t-160.5 242.5t-59 299zM176 731q0 -135 49 -255.5t133.5 -208t204.5 -138.5t256 -51t256 51 t204.5 138.5t133.5 208t49 255.5t-49 255.5t-133.5 208t-204.5 138.5t-256 51t-256 -51t-204.5 -138.5t-133.5 -208t-49 -255.5zM393 731q0 207 120 338t325 131q149 0 254 -82t125 -227h-105q-20 94 -91.5 155t-180.5 62q-161 0 -249.5 -105.5t-88.5 -271.5t88.5 -271.5 t249.5 -105.5q109 0 180.5 60.5t91.5 156.5h105q-20 -145 -125 -227t-254 -82q-205 0 -325 131t-120 338z" />
<glyph unicode="&#xaa;" horiz-adv-x="636" d="M-10 950q0 52 21 89.5t46.5 58t80 34.5t87.5 18.5t103 11.5l30 3q59 7 84 19t25 45q0 77 -48 107t-132 30q-75 0 -125 -36.5t-51 -106.5h-97q6 114 81.5 168.5t205.5 54.5q43 0 78.5 -5t71 -18.5t59.5 -35.5t39 -59.5t14 -86.5v-352q3 -47 51 -47q15 0 27 6v-70 q-42 -6 -55 -6q-59 0 -79 27t-20 88h-4q-83 -133 -252 -133q-109 0 -175 48.5t-66 147.5zM86 954q0 -52 44.5 -86t96.5 -34q100 0 170.5 53.5t69.5 140.5v96h-4q-8 -17 -70 -28q-25 -4 -68.5 -10t-66 -10t-55.5 -11t-49.5 -15.5t-34.5 -21.5t-25.5 -31.5t-7.5 -42.5z" />
<glyph unicode="&#xab;" horiz-adv-x="872" d="M123 500v127l272 256v-138l-192 -182l192 -182v-137zM453 500v127l272 256v-138l-193 -182l193 -182v-137z" />
<glyph unicode="&#xac;" horiz-adv-x="1228" d="M100 666v108h1030v-547h-108v439h-922z" />
<glyph unicode="&#xad;" horiz-adv-x="757" d="M123 504v119h512v-119h-512z" />
<glyph unicode="&#xae;" horiz-adv-x="1638" d="M57 731q0 158 59 299t160.5 242.5t242.5 161t300 59.5t300 -59.5t242.5 -161t160.5 -242.5t59 -299t-59 -299t-160.5 -242.5t-242.5 -161t-300 -59.5t-300 59.5t-242.5 161t-160.5 242.5t-59 299zM176 731q0 -135 49 -255.5t133.5 -208t204.5 -138.5t256 -51t256 51 t204.5 138.5t133.5 208t49 255.5t-49 255.5t-133.5 208t-204.5 138.5t-256 51t-256 -51t-204.5 -138.5t-133.5 -208t-49 -255.5zM543 291v880h338q286 0 286 -243q0 -110 -61.5 -169.5t-159.5 -76.5l262 -391h-127l-247 391h-183v-391h-108zM651 774h144q42 0 67 1t60 5.5 t56 14.5t41.5 26.5t30 43.5t9.5 63q0 151 -209 151h-199v-305z" />
<glyph unicode="&#xaf;" horiz-adv-x="378" d="M-147 1298v93h673v-93h-673z" />
<glyph unicode="&#xb0;" horiz-adv-x="819" d="M115 1151q0 123 86 209t209 86t209 -86t86 -209t-86 -209t-209 -86t-209 86t-86 209zM195 1151q0 -89 63 -152t152 -63t152 63t63 152t-63 152t-152 63t-152 -63t-63 -152z" />
<glyph unicode="&#xb1;" horiz-adv-x="1228" d="M100 0v109h1030v-109h-1030zM102 553v109h459v368h109v-368h460v-109h-460v-369h-109v369h-459z" />
<glyph unicode="&#xb2;" horiz-adv-x="681" d="M31 561q1 63 24.5 117t58.5 91t84.5 73.5t95 63t98.5 61.5t87 67q41 39 60.5 76.5t19.5 87.5q0 76 -61.5 122t-149.5 46q-102 0 -153.5 -67t-49.5 -166h-96q-3 145 74.5 229t232.5 84q135 0 217 -65t82 -191q0 -97 -63 -168.5t-172 -136.5q-17 -11 -58.5 -34.5t-69.5 -41 t-62 -44t-56.5 -57.5t-32.5 -67h508v-80h-618z" />
<glyph unicode="&#xb3;" horiz-adv-x="681" d="M16 844h97q-5 -99 56.5 -160t168.5 -61q94 0 164.5 50t70.5 134q0 81 -64 126.5t-161 45.5h-72v80h72q73 0 132 40t59 111q0 75 -58 115.5t-143 40.5q-97 0 -152 -59t-53 -152h-96q2 130 81.5 210.5t219.5 80.5q81 0 146 -22.5t108 -75.5t43 -129q0 -71 -42 -122.5 t-116 -68.5v-4q90 -12 141.5 -69t51.5 -142q0 -127 -94 -198.5t-236 -71.5q-155 0 -244.5 79.5t-79.5 221.5z" />
<glyph unicode="&#xb4;" horiz-adv-x="378" d="M68 1204l215 289h159l-270 -289h-104z" />
<glyph unicode="&#xb5;" horiz-adv-x="1099" d="M121 -391v1448h129v-688q5 -148 69 -219.5t213 -71.5q64 0 117.5 23.5t90 63.5t62 94.5t37 115.5t11.5 127v555h129v-1057h-119v190h-4q-51 -105 -147.5 -163t-216.5 -58q-143 0 -240 72v-432h-131z" />
<glyph unicode="&#xb6;" horiz-adv-x="1228" d="M135 1061q0 192 120 296.5t337 104.5h471v-1824h-129v1716h-246v-1716h-129v1034q-178 0 -301 114.5t-123 274.5z" />
<glyph unicode="&#xb7;" horiz-adv-x="569" d="M164 649q0 46 37.5 82.5t83.5 36.5q49 0 85 -36.5t36 -86.5q0 -47 -37 -83t-84 -36q-49 0 -85 36.5t-36 86.5z" />
<glyph unicode="&#xb8;" horiz-adv-x="378" d="M-12 -379l28 66q72 -29 162 -29q46 0 77.5 22.5t31.5 65.5q0 35 -25.5 56.5t-62.5 21.5q-70 0 -105 -17l-33 31l125 162h72l-90 -119q36 9 77.5 5.5t77.5 -14.5t59.5 -42t23.5 -76q0 -59 -36 -100.5t-85 -58.5t-105 -17q-105 0 -192 43z" />
<glyph unicode="&#xb9;" horiz-adv-x="681" d="M72 1196v80q44 1 68.5 3t57 7t50.5 14.5t37.5 25.5t30.5 41t18 60h82v-866h-97v635h-247z" />
<glyph unicode="&#xba;" horiz-adv-x="684" d="M6 1100q0 150 86.5 248t239.5 98q167 0 256.5 -97t89.5 -249t-89.5 -249t-256.5 -97q-153 0 -239.5 98t-86.5 248zM102 1100q0 -106 64 -186t176 -80t176 80t64 186t-64 186t-176 80t-176 -80t-64 -186z" />
<glyph unicode="&#xbb;" horiz-adv-x="872" d="M147 244v137l193 182l-193 182v138l273 -256v-127zM477 244v137l193 182l-193 182v138l273 -256v-127z" />
<glyph unicode="&#xbc;" horiz-adv-x="1708" d="M98 1196v80q44 1 68.5 3t57 7t50.5 14.5t37.5 25.5t30.5 41t18 60h82v-866h-96v635h-248zM272 -70l928 1555h96l-925 -1555h-99zM885 205v80l436 581h90v-581h139v-80h-139v-205h-96v205h-430zM979 285h336v442h-4z" />
<glyph unicode="&#xbd;" horiz-adv-x="1708" d="M98 1196v80q44 1 68.5 3t57 7t50.5 14.5t37.5 25.5t30.5 41t18 60h82v-866h-96v635h-248zM272 -70l928 1555h96l-925 -1555h-99zM983 0q2 75 33 135.5t83.5 104.5t106.5 78.5t120 76.5t106 78q41 39 60 76.5t19 87.5q0 76 -61.5 122t-149.5 46q-102 0 -153 -67.5 t-49 -166.5h-97q-3 145 75 229.5t233 84.5q135 0 217 -65t82 -191q0 -51 -19 -96.5t-54.5 -83.5t-73.5 -66t-89 -59q-17 -11 -58.5 -34.5t-69.5 -41t-61.5 -44t-56 -57.5t-32.5 -67h508v-80h-619z" />
<glyph unicode="&#xbe;" horiz-adv-x="1708" d="M16 844h97q-5 -99 56.5 -160t168.5 -61q94 0 164.5 50t70.5 134q0 81 -64 126.5t-161 45.5h-72v80h72q73 0 132 40t59 111q0 75 -58 115.5t-143 40.5q-97 0 -152 -59t-53 -152h-96q2 130 81.5 210.5t219.5 80.5q81 0 146 -22.5t108 -75.5t43 -129q0 -71 -42 -122.5 t-116 -68.5v-4q90 -12 141.5 -69t51.5 -142q0 -127 -94 -198.5t-236 -71.5q-155 0 -244.5 79.5t-79.5 221.5zM354 -70l928 1555h96l-925 -1555h-99zM885 205v80l436 581h90v-581h139v-80h-139v-205h-96v205h-430zM979 285h336v442h-4z" />
<glyph unicode="&#xbf;" horiz-adv-x="1099" d="M111 -43q0 106 45 185.5t133 162.5q21 21 51.5 51t42 41t31 33.5t25 31t16 31t12 36.5t5.5 44.5t5 58t2 73.5h129q2 -63 -2 -111t-19 -90.5t-28.5 -71t-47.5 -67.5t-59 -63.5t-79 -74.5q-133 -126 -133 -264q0 -121 85 -198.5t207 -77.5q162 0 247.5 103.5t82.5 268.5 h129q-2 -222 -123.5 -351.5t-341.5 -129.5q-176 0 -295.5 103t-119.5 276zM457 840v217h172v-217h-172z" />
<glyph unicode="&#xc0;" horiz-adv-x="1290" d="M-14 0l589 1462h156l574 -1462h-150l-178 455h-666l-176 -455h-149zM354 573h576l-283 750zM393 1868h160l215 -289h-104z" />
<glyph unicode="&#xc1;" horiz-adv-x="1290" d="M-14 0l589 1462h156l574 -1462h-150l-178 455h-666l-176 -455h-149zM354 573h576l-283 750zM524 1579l215 289h160l-270 -289h-105z" />
<glyph unicode="&#xc2;" horiz-adv-x="1290" d="M-14 0l589 1462h156l574 -1462h-150l-178 455h-666l-176 -455h-149zM342 1579l233 289h142l233 -289h-133l-176 209l-180 -209h-119zM354 573h576l-283 750z" />
<glyph unicode="&#xc3;" horiz-adv-x="1290" d="M-14 0l589 1462h156l574 -1462h-150l-178 455h-666l-176 -455h-149zM324 1620q10 80 58 138.5t124 58.5q65 0 153 -45q3 -2 14.5 -7.5t15.5 -7.5t13.5 -7t14.5 -7t13.5 -5.5t13.5 -5t12.5 -3.5t13.5 -2.5t12 -0.5q77 0 107 99h78q-12 -79 -58.5 -137t-120.5 -58 q-61 0 -153 45q-9 4 -33 16.5t-34.5 17.5t-27 10t-28.5 5q-48 0 -78.5 -27.5t-30.5 -76.5h-79zM354 573h576l-283 750z" />
<glyph unicode="&#xc4;" horiz-adv-x="1290" d="M-14 0l589 1462h156l574 -1462h-150l-178 455h-666l-176 -455h-149zM354 573h576l-283 750zM395 1614v207h140v-207h-140zM758 1614v207h139v-207h-139z" />
<glyph unicode="&#xc5;" horiz-adv-x="1290" d="M-14 0l589 1462h156l574 -1462h-150l-178 455h-666l-176 -455h-149zM354 573h576l-283 750zM428 1761q0 91 64 155t155 64t155 -64t64 -155t-64 -155t-155 -64t-155 64t-64 155zM508 1761q0 -59 40 -99t99 -40t99 40t40 99t-40.5 99.5t-98.5 40.5t-98.5 -40.5 t-40.5 -99.5z" />
<glyph unicode="&#xc6;" horiz-adv-x="1857" d="M-14 0l766 1462h1050v-119h-751v-528h704v-119h-704v-577h759v-119h-899v463h-530l-238 -463h-157zM442 582h469v761h-82z" />
<glyph unicode="&#xc7;" horiz-adv-x="1441" d="M78 731q0 152 44 287.5t127.5 242.5t217.5 169.5t301 62.5q141 0 266.5 -53t214.5 -162.5t107 -257.5h-139q-36 165 -160.5 259.5t-288.5 94.5q-112 0 -205.5 -36.5t-156.5 -98t-106.5 -144.5t-63 -174.5t-19.5 -189.5t19.5 -189.5t63 -174.5t106.5 -144.5t156.5 -98 t205.5 -36.5q131 0 234.5 63.5t162 168.5t72.5 237h139q-29 -271 -191 -429.5t-417 -158.5h-2l-68 -88q36 9 77.5 5.5t77.5 -14.5t59.5 -42t23.5 -76q0 -59 -35.5 -100.5t-84.5 -58.5t-105 -17q-106 0 -193 43l29 66q73 -29 162 -29q46 0 77 22.5t31 65.5q0 35 -25.5 56.5 t-62.5 21.5q-69 0 -104 -17l-33 31l104 135q-151 13 -270.5 79.5t-194.5 171t-114 234t-39 273.5z" />
<glyph unicode="&#xc8;" horiz-adv-x="1214" d="M147 0v1462h1010v-119h-870v-528h815v-119h-815v-577h880v-119h-1020zM354 1868h160l215 -289h-104z" />
<glyph unicode="&#xc9;" horiz-adv-x="1214" d="M147 0v1462h1010v-119h-870v-528h815v-119h-815v-577h880v-119h-1020zM485 1579l215 289h160l-270 -289h-105z" />
<glyph unicode="&#xca;" horiz-adv-x="1214" d="M147 0v1462h1010v-119h-870v-528h815v-119h-815v-577h880v-119h-1020zM303 1579l234 289h141l233 -289h-133l-176 209l-180 -209h-119z" />
<glyph unicode="&#xcb;" horiz-adv-x="1214" d="M147 0v1462h1010v-119h-870v-528h815v-119h-815v-577h880v-119h-1020zM356 1614v207h140v-207h-140zM719 1614v207h139v-207h-139z" />
<glyph unicode="&#xcc;" horiz-adv-x="454" d="M-25 1868h160l215 -289h-104zM158 0v1462h139v-1462h-139z" />
<glyph unicode="&#xcd;" horiz-adv-x="454" d="M106 1579l216 289h159l-270 -289h-105zM158 0v1462h139v-1462h-139z" />
<glyph unicode="&#xce;" horiz-adv-x="454" d="M-76 1579l234 289h141l233 -289h-133l-176 209l-180 -209h-119zM158 0v1462h139v-1462h-139z" />
<glyph unicode="&#xcf;" horiz-adv-x="454" d="M-23 1614v207h140v-207h-140zM158 0v1462h139v-1462h-139zM340 1614v207h139v-207h-139z" />
<glyph unicode="&#xd0;" horiz-adv-x="1402" d="M0 713v92h147v657h506q332 -8 502 -191t170 -540t-170 -540t-502 -191h-506v713h-147zM287 119h297q316 -2 459 142t143 470t-143 470t-459 142h-297v-538h483v-92h-483v-594z" />
<glyph unicode="&#xd1;" horiz-adv-x="1441" d="M145 0v1462h156l852 -1237h4v1237h139v-1462h-155l-852 1237h-4v-1237h-140zM399 1620q10 80 58.5 138.5t124.5 58.5q65 0 153 -45q3 -2 14.5 -7.5t15.5 -7.5t13.5 -7t14.5 -7t13.5 -5.5t13.5 -5t12.5 -3.5t13.5 -2.5t12 -0.5q77 0 107 99h77q-12 -79 -58 -137t-120 -58 q-61 0 -153 45q-9 4 -33 16.5t-34.5 17.5t-27 10t-28.5 5q-48 0 -78.5 -27.5t-30.5 -76.5h-80z" />
<glyph unicode="&#xd2;" horiz-adv-x="1517" d="M70 731q0 152 44 287.5t127.5 242.5t217.5 169.5t301 62.5q134 0 247.5 -41t193.5 -112.5t136.5 -168t83.5 -208t27 -232.5t-27 -232.5t-83.5 -208t-136.5 -168t-193.5 -112.5t-247.5 -41q-167 0 -301 62.5t-217.5 169.5t-127.5 242.5t-44 287.5zM209 731 q0 -98 19.5 -189.5t63 -174.5t106.5 -144.5t156.5 -98t205.5 -36.5t204.5 36.5t155.5 98t106.5 144.5t63 174.5t19.5 189.5t-19.5 189.5t-63 174.5t-106.5 144.5t-155.5 98t-204.5 36.5t-205.5 -36.5t-156.5 -98t-106.5 -144.5t-63 -174.5t-19.5 -189.5zM506 1868h160 l215 -289h-105z" />
<glyph unicode="&#xd3;" horiz-adv-x="1517" d="M70 731q0 152 44 287.5t127.5 242.5t217.5 169.5t301 62.5q134 0 247.5 -41t193.5 -112.5t136.5 -168t83.5 -208t27 -232.5t-27 -232.5t-83.5 -208t-136.5 -168t-193.5 -112.5t-247.5 -41q-167 0 -301 62.5t-217.5 169.5t-127.5 242.5t-44 287.5zM209 731 q0 -98 19.5 -189.5t63 -174.5t106.5 -144.5t156.5 -98t205.5 -36.5t204.5 36.5t155.5 98t106.5 144.5t63 174.5t19.5 189.5t-19.5 189.5t-63 174.5t-106.5 144.5t-155.5 98t-204.5 36.5t-205.5 -36.5t-156.5 -98t-106.5 -144.5t-63 -174.5t-19.5 -189.5zM637 1579l215 289 h160l-271 -289h-104z" />
<glyph unicode="&#xd4;" horiz-adv-x="1517" d="M70 731q0 152 44 287.5t127.5 242.5t217.5 169.5t301 62.5q134 0 247.5 -41t193.5 -112.5t136.5 -168t83.5 -208t27 -232.5t-27 -232.5t-83.5 -208t-136.5 -168t-193.5 -112.5t-247.5 -41q-167 0 -301 62.5t-217.5 169.5t-127.5 242.5t-44 287.5zM209 731 q0 -98 19.5 -189.5t63 -174.5t106.5 -144.5t156.5 -98t205.5 -36.5t204.5 36.5t155.5 98t106.5 144.5t63 174.5t19.5 189.5t-19.5 189.5t-63 174.5t-106.5 144.5t-155.5 98t-204.5 36.5t-205.5 -36.5t-156.5 -98t-106.5 -144.5t-63 -174.5t-19.5 -189.5zM455 1579l233 289 h141l234 -289h-133l-176 209l-181 -209h-118z" />
<glyph unicode="&#xd5;" horiz-adv-x="1517" d="M70 731q0 152 44 287.5t127.5 242.5t217.5 169.5t301 62.5q134 0 247.5 -41t193.5 -112.5t136.5 -168t83.5 -208t27 -232.5t-27 -232.5t-83.5 -208t-136.5 -168t-193.5 -112.5t-247.5 -41q-167 0 -301 62.5t-217.5 169.5t-127.5 242.5t-44 287.5zM209 731 q0 -98 19.5 -189.5t63 -174.5t106.5 -144.5t156.5 -98t205.5 -36.5t204.5 36.5t155.5 98t106.5 144.5t63 174.5t19.5 189.5t-19.5 189.5t-63 174.5t-106.5 144.5t-155.5 98t-204.5 36.5t-205.5 -36.5t-156.5 -98t-106.5 -144.5t-63 -174.5t-19.5 -189.5zM436 1620 q10 80 58 138.5t124 58.5q66 0 154 -45q3 -2 14.5 -7.5t15.5 -7.5t13.5 -7t14.5 -7t13.5 -5.5t13.5 -5t12.5 -3.5t13.5 -2.5t12 -0.5q76 0 106 99h78q-12 -79 -58 -137t-120 -58q-61 0 -153 45q-9 4 -33 16.5t-34.5 17.5t-27 10t-28.5 5q-48 0 -78.5 -27.5t-30.5 -76.5h-80z " />
<glyph unicode="&#xd6;" horiz-adv-x="1517" d="M70 731q0 152 44 287.5t127.5 242.5t217.5 169.5t301 62.5q134 0 247.5 -41t193.5 -112.5t136.5 -168t83.5 -208t27 -232.5t-27 -232.5t-83.5 -208t-136.5 -168t-193.5 -112.5t-247.5 -41q-167 0 -301 62.5t-217.5 169.5t-127.5 242.5t-44 287.5zM209 731 q0 -98 19.5 -189.5t63 -174.5t106.5 -144.5t156.5 -98t205.5 -36.5t204.5 36.5t155.5 98t106.5 144.5t63 174.5t19.5 189.5t-19.5 189.5t-63 174.5t-106.5 144.5t-155.5 98t-204.5 36.5t-205.5 -36.5t-156.5 -98t-106.5 -144.5t-63 -174.5t-19.5 -189.5zM508 1614v207h139 v-207h-139zM870 1614v207h140v-207h-140z" />
<glyph unicode="&#xd7;" horiz-adv-x="1228" d="M152 127l385 387l-385 387l75 76l387 -387l387 387l76 -76l-387 -387l387 -387l-76 -76l-387 385l-387 -385z" />
<glyph unicode="&#xd8;" horiz-adv-x="1517" d="M70 731q0 152 44 287.5t127.5 242.5t217.5 169.5t301 62.5q288 0 471 -180l145 160l54 -48l-150 -165q83 -102 125.5 -239t42.5 -290q0 -121 -27 -232.5t-83.5 -208t-136.5 -168t-193.5 -112.5t-247.5 -41q-290 0 -473 183l-156 -177l-55 52l162 180q-168 210 -168 524z M209 731q0 -254 119 -424l815 907q-147 160 -383 160q-112 0 -205.5 -36.5t-156.5 -98t-106.5 -144.5t-63 -174.5t-19.5 -189.5zM375 250q146 -162 385 -162q112 0 204.5 36.5t155.5 98t106.5 144.5t63 174.5t19.5 189.5q0 257 -121 426z" />
<glyph unicode="&#xd9;" horiz-adv-x="1402" d="M133 526v936h139v-905q-1 -246 108.5 -357.5t319.5 -111.5q211 0 321 111.5t109 357.5v905h140v-936q0 -92 -20 -173.5t-63.5 -152.5t-109 -122t-162 -80t-215.5 -29t-214.5 29t-160.5 80t-109 122t-63.5 152t-19.5 174zM449 1868h159l215 -289h-104z" />
<glyph unicode="&#xda;" horiz-adv-x="1402" d="M133 526v936h139v-905q-1 -246 108.5 -357.5t319.5 -111.5q211 0 321 111.5t109 357.5v905h140v-936q0 -92 -20 -173.5t-63.5 -152.5t-109 -122t-162 -80t-215.5 -29t-214.5 29t-160.5 80t-109 122t-63.5 152t-19.5 174zM580 1579l215 289h159l-270 -289h-104z" />
<glyph unicode="&#xdb;" horiz-adv-x="1402" d="M133 526v936h139v-905q-1 -246 108.5 -357.5t319.5 -111.5q211 0 321 111.5t109 357.5v905h140v-936q0 -92 -20 -173.5t-63.5 -152.5t-109 -122t-162 -80t-215.5 -29t-214.5 29t-160.5 80t-109 122t-63.5 152t-19.5 174zM397 1579l234 289h141l234 -289h-134l-176 209 l-180 -209h-119z" />
<glyph unicode="&#xdc;" horiz-adv-x="1402" d="M133 526v936h139v-905q-1 -246 108.5 -357.5t319.5 -111.5q211 0 321 111.5t109 357.5v905h140v-936q0 -92 -20 -173.5t-63.5 -152.5t-109 -122t-162 -80t-215.5 -29t-214.5 29t-160.5 80t-109 122t-63.5 152t-19.5 174zM451 1614v207h139v-207h-139zM813 1614v207h139 v-207h-139z" />
<glyph unicode="&#xdd;" horiz-adv-x="1251" d="M-20 1462h165l482 -741l479 741h166l-578 -860v-602h-139v602zM504 1579l215 289h160l-271 -289h-104z" />
<glyph unicode="&#xde;" horiz-adv-x="1290" d="M147 0v1462h140v-239h510q199 0 316.5 -111t117.5 -307t-117.5 -307t-316.5 -111h-510v-387h-140zM287 506h479q150 0 238 76.5t88 222.5t-88 222.5t-238 76.5h-479v-598z" />
<glyph unicode="&#xdf;" horiz-adv-x="1099" d="M125 0v1096q0 197 109 297t298 100q172 0 287 -96t115 -264q0 -113 -62 -199t-170 -109v-4q96 -8 167 -64t105 -138t34 -177q0 -111 -34.5 -198t-96 -142t-143.5 -85t-181 -33q-67 0 -102 4v112q44 -8 96 -8q65 -1 123 17.5t105.5 56.5t75.5 103.5t28 150.5q0 84 -21 144 t-56.5 96.5t-92 58t-116.5 28.5t-142 7v108q57 0 106 7t96 26t79.5 48t52.5 76.5t20 108.5q0 112 -79.5 184t-190.5 72q-148 0 -214.5 -75t-66.5 -224v-1085h-129z" />
<glyph unicode="&#xe0;" horiz-adv-x="1062" d="M66 279q0 58 16 104t37.5 77t66 56t77 38.5t98 26t100.5 17.5t111 13q41 5 61 7q91 10 128.5 36.5t37.5 107.5q0 63 -21 107t-61 67t-87 33t-108 10q-126 0 -202.5 -61t-79.5 -185h-129q9 179 123.5 266.5t304.5 87.5q389 0 389 -339v-562q0 -77 76 -77q20 0 40 8v-109 q-39 -8 -83 -8q-91 0 -121.5 45t-30.5 139h-4q-73 -112 -157 -163.5t-228 -51.5q-155 0 -254.5 79t-99.5 231zM195 287q0 -93 70 -151t165 -58q154 0 262 91t107 241v168h-4q-17 -32 -109 -48q-33 -6 -83.5 -13t-86 -12t-81.5 -14.5t-77.5 -19.5t-64.5 -26.5t-53 -37.5 t-32.5 -51.5t-12.5 -68.5zM279 1493h159l215 -289h-104z" />
<glyph unicode="&#xe1;" horiz-adv-x="1062" d="M66 279q0 58 16 104t37.5 77t66 56t77 38.5t98 26t100.5 17.5t111 13q41 5 61 7q91 10 128.5 36.5t37.5 107.5q0 63 -21 107t-61 67t-87 33t-108 10q-126 0 -202.5 -61t-79.5 -185h-129q9 179 123.5 266.5t304.5 87.5q389 0 389 -339v-562q0 -77 76 -77q20 0 40 8v-109 q-39 -8 -83 -8q-91 0 -121.5 45t-30.5 139h-4q-73 -112 -157 -163.5t-228 -51.5q-155 0 -254.5 79t-99.5 231zM195 287q0 -93 70 -151t165 -58q154 0 262 91t107 241v168h-4q-17 -32 -109 -48q-33 -6 -83.5 -13t-86 -12t-81.5 -14.5t-77.5 -19.5t-64.5 -26.5t-53 -37.5 t-32.5 -51.5t-12.5 -68.5zM410 1204l215 289h159l-270 -289h-104z" />
<glyph unicode="&#xe2;" horiz-adv-x="1062" d="M66 279q0 58 16 104t37.5 77t66 56t77 38.5t98 26t100.5 17.5t111 13q41 5 61 7q91 10 128.5 36.5t37.5 107.5q0 63 -21 107t-61 67t-87 33t-108 10q-126 0 -202.5 -61t-79.5 -185h-129q9 179 123.5 266.5t304.5 87.5q389 0 389 -339v-562q0 -77 76 -77q20 0 40 8v-109 q-39 -8 -83 -8q-91 0 -121.5 45t-30.5 139h-4q-73 -112 -157 -163.5t-228 -51.5q-155 0 -254.5 79t-99.5 231zM195 287q0 -93 70 -151t165 -58q154 0 262 91t107 241v168h-4q-17 -32 -109 -48q-33 -6 -83.5 -13t-86 -12t-81.5 -14.5t-77.5 -19.5t-64.5 -26.5t-53 -37.5 t-32.5 -51.5t-12.5 -68.5zM227 1204l234 289h141l234 -289h-134l-176 209l-180 -209h-119z" />
<glyph unicode="&#xe3;" horiz-adv-x="1062" d="M66 279q0 58 16 104t37.5 77t66 56t77 38.5t98 26t100.5 17.5t111 13q41 5 61 7q91 10 128.5 36.5t37.5 107.5q0 63 -21 107t-61 67t-87 33t-108 10q-126 0 -202.5 -61t-79.5 -185h-129q9 179 123.5 266.5t304.5 87.5q389 0 389 -339v-562q0 -77 76 -77q20 0 40 8v-109 q-39 -8 -83 -8q-91 0 -121.5 45t-30.5 139h-4q-73 -112 -157 -163.5t-228 -51.5q-155 0 -254.5 79t-99.5 231zM195 287q0 -93 70 -151t165 -58q154 0 262 91t107 241v168h-4q-17 -32 -109 -48q-33 -6 -83.5 -13t-86 -12t-81.5 -14.5t-77.5 -19.5t-64.5 -26.5t-53 -37.5 t-32.5 -51.5t-12.5 -68.5zM209 1245q10 80 58 138.5t124 58.5q66 0 154 -45t123 -45q44 0 68 26t38 72h78q-12 -79 -58 -137t-120 -58q-62 0 -154 45q-11 5 -33.5 17t-34 17.5t-27.5 10.5t-28 5q-47 0 -77.5 -28t-30.5 -77h-80z" />
<glyph unicode="&#xe4;" horiz-adv-x="1062" d="M66 279q0 58 16 104t37.5 77t66 56t77 38.5t98 26t100.5 17.5t111 13q41 5 61 7q91 10 128.5 36.5t37.5 107.5q0 63 -21 107t-61 67t-87 33t-108 10q-126 0 -202.5 -61t-79.5 -185h-129q9 179 123.5 266.5t304.5 87.5q389 0 389 -339v-562q0 -77 76 -77q20 0 40 8v-109 q-39 -8 -83 -8q-91 0 -121.5 45t-30.5 139h-4q-73 -112 -157 -163.5t-228 -51.5q-155 0 -254.5 79t-99.5 231zM195 287q0 -93 70 -151t165 -58q154 0 262 91t107 241v168h-4q-17 -32 -109 -48q-33 -6 -83.5 -13t-86 -12t-81.5 -14.5t-77.5 -19.5t-64.5 -26.5t-53 -37.5 t-32.5 -51.5t-12.5 -68.5zM281 1239v207h139v-207h-139zM643 1239v207h139v-207h-139z" />
<glyph unicode="&#xe5;" horiz-adv-x="1062" d="M66 279q0 58 16 104t37.5 77t66 56t77 38.5t98 26t100.5 17.5t111 13q41 5 61 7q91 10 128.5 36.5t37.5 107.5q0 63 -21 107t-61 67t-87 33t-108 10q-126 0 -202.5 -61t-79.5 -185h-129q9 179 123.5 266.5t304.5 87.5q389 0 389 -339v-562q0 -77 76 -77q20 0 40 8v-109 q-39 -8 -83 -8q-91 0 -121.5 45t-30.5 139h-4q-73 -112 -157 -163.5t-228 -51.5q-155 0 -254.5 79t-99.5 231zM195 287q0 -93 70 -151t165 -58q154 0 262 91t107 241v168h-4q-17 -32 -109 -48q-33 -6 -83.5 -13t-86 -12t-81.5 -14.5t-77.5 -19.5t-64.5 -26.5t-53 -37.5 t-32.5 -51.5t-12.5 -68.5zM313 1386q0 91 64 155.5t155 64.5t155.5 -64.5t64.5 -155.5t-64.5 -155t-155.5 -64t-155 64t-64 155zM393 1386q0 -58 40.5 -98.5t98.5 -40.5q59 0 99.5 40.5t40.5 98.5t-41 99t-99 41t-98.5 -40.5t-40.5 -99.5z" />
<glyph unicode="&#xe6;" horiz-adv-x="1781" d="M66 279q0 58 16 104t37.5 77t66 56t77 38.5t98 26t100.5 17.5t111 13q41 5 61 7q91 10 128.5 36.5t37.5 107.5q0 63 -21 107t-61 67t-87 33t-108 10q-126 0 -202.5 -61t-79.5 -185h-129q9 179 123.5 266.5t304.5 87.5q60 0 113 -9.5t106 -32t88.5 -68t44.5 -109.5h4 q41 105 144.5 162t226.5 57q101 0 180.5 -32.5t130.5 -87.5t84.5 -132t47 -161t13.5 -180h-794q-7 -116 27 -208t115.5 -150t201.5 -58q128 0 206.5 68.5t106.5 195.5h129q-40 -178 -159.5 -275.5t-301.5 -97.5q-141 0 -240.5 68t-146.5 199h-4q-15 -84 -87.5 -146.5 t-165.5 -91.5t-189 -29q-155 0 -254.5 79t-99.5 231zM195 287q0 -93 70 -151t165 -58q154 0 262 91t107 241v168h-4q-17 -32 -109 -48q-33 -6 -83.5 -13t-86 -12t-81.5 -14.5t-77.5 -19.5t-64.5 -26.5t-53 -37.5t-32.5 -51.5t-12.5 -68.5zM928 602h665q0 153 -92.5 265 t-240.5 112q-155 0 -245 -110t-87 -267z" />
<glyph unicode="&#xe7;" horiz-adv-x="1062" d="M70 528q0 154 56 279t171 202.5t272 77.5q175 0 291 -93t137 -269h-129q-27 122 -101.5 188t-197.5 66q-90 0 -162 -38.5t-116.5 -103t-68 -144t-23.5 -165.5t23.5 -165.5t68 -143.5t116.5 -102.5t162 -38.5q121 0 208.5 85t99.5 216h129q-26 -189 -140.5 -298 t-287.5 -112l-68 -88q36 9 77.5 5.5t77.5 -14.5t59.5 -42t23.5 -76q0 -59 -36 -100.5t-85 -58.5t-105 -17q-105 0 -192 43l28 66q72 -29 162 -29q46 0 77.5 22.5t31.5 65.5q0 35 -25.5 56.5t-62.5 21.5q-70 0 -105 -17l-33 31l105 135q-138 15 -239 94.5t-150 198t-49 262.5 z" />
<glyph unicode="&#xe8;" horiz-adv-x="1062" d="M70 528q0 86 17 165.5t54.5 151.5t92 125.5t135 85t178.5 31.5q99 0 179.5 -33.5t134 -90t89.5 -133t50.5 -161t11.5 -175.5h-813q1 -59 13 -116t39 -111.5t66.5 -96t98.5 -67t131 -25.5q135 0 217.5 72t114.5 198h129q-43 -186 -155 -282.5t-306 -96.5 q-122 0 -215.5 44.5t-149.5 122.5t-84 177t-28 215zM199 602h684q-2 74 -26 141.5t-65.5 120t-105 84t-139.5 31.5q-101 0 -178.5 -55t-118.5 -138.5t-51 -183.5zM279 1493h159l215 -289h-104z" />
<glyph unicode="&#xe9;" horiz-adv-x="1062" d="M70 528q0 86 17 165.5t54.5 151.5t92 125.5t135 85t178.5 31.5q99 0 179.5 -33.5t134 -90t89.5 -133t50.5 -161t11.5 -175.5h-813q1 -59 13 -116t39 -111.5t66.5 -96t98.5 -67t131 -25.5q135 0 217.5 72t114.5 198h129q-43 -186 -155 -282.5t-306 -96.5 q-122 0 -215.5 44.5t-149.5 122.5t-84 177t-28 215zM199 602h684q-2 74 -26 141.5t-65.5 120t-105 84t-139.5 31.5q-101 0 -178.5 -55t-118.5 -138.5t-51 -183.5zM410 1204l215 289h159l-270 -289h-104z" />
<glyph unicode="&#xea;" horiz-adv-x="1062" d="M70 528q0 86 17 165.5t54.5 151.5t92 125.5t135 85t178.5 31.5q99 0 179.5 -33.5t134 -90t89.5 -133t50.5 -161t11.5 -175.5h-813q1 -59 13 -116t39 -111.5t66.5 -96t98.5 -67t131 -25.5q135 0 217.5 72t114.5 198h129q-43 -186 -155 -282.5t-306 -96.5 q-122 0 -215.5 44.5t-149.5 122.5t-84 177t-28 215zM199 602h684q-2 74 -26 141.5t-65.5 120t-105 84t-139.5 31.5q-101 0 -178.5 -55t-118.5 -138.5t-51 -183.5zM227 1204l234 289h141l234 -289h-134l-176 209l-180 -209h-119z" />
<glyph unicode="&#xeb;" horiz-adv-x="1062" d="M70 528q0 86 17 165.5t54.5 151.5t92 125.5t135 85t178.5 31.5q99 0 179.5 -33.5t134 -90t89.5 -133t50.5 -161t11.5 -175.5h-813q1 -59 13 -116t39 -111.5t66.5 -96t98.5 -67t131 -25.5q135 0 217.5 72t114.5 198h129q-43 -186 -155 -282.5t-306 -96.5 q-122 0 -215.5 44.5t-149.5 122.5t-84 177t-28 215zM199 602h684q-2 74 -26 141.5t-65.5 120t-105 84t-139.5 31.5q-101 0 -178.5 -55t-118.5 -138.5t-51 -183.5zM281 1239v207h139v-207h-139zM643 1239v207h139v-207h-139z" />
<glyph unicode="&#xec;" horiz-adv-x="378" d="M-63 1493h159l215 -289h-104zM125 0v1057h129v-1057h-129z" />
<glyph unicode="&#xed;" horiz-adv-x="378" d="M68 1204l215 289h159l-270 -289h-104zM125 0v1057h129v-1057h-129z" />
<glyph unicode="&#xee;" horiz-adv-x="378" d="M-115 1204l234 289h141l234 -289h-134l-176 209l-180 -209h-119zM125 0v1057h129v-1057h-129z" />
<glyph unicode="&#xef;" horiz-adv-x="378" d="M-61 1239v207h139v-207h-139zM125 0v1057h129v-1057h-129zM301 1239v207h139v-207h-139z" />
<glyph unicode="&#xf0;" d="M70 510q0 108 32.5 203t93 167t153.5 114t206 42q195 0 272 -82h4q-96 179 -272 322l-215 -121l-68 66l205 114q-105 70 -190 113l74 72q122 -63 213 -131l233 131l68 -66l-224 -125q402 -329 402 -801q0 -117 -31 -217t-91 -177t-157.5 -121t-222.5 -44 q-121 0 -214.5 41.5t-152 115t-88.5 171t-30 213.5zM199 508q0 -86 21 -161.5t63.5 -136.5t113.5 -96.5t164 -35.5q177 0 272 118.5t95 315.5q0 63 -12.5 122t-40.5 113t-69.5 94t-103.5 63.5t-137 23.5q-96 0 -168 -33.5t-114.5 -92.5t-63 -133t-20.5 -161z" />
<glyph unicode="&#xf1;" horiz-adv-x="1099" d="M121 0v1057h129v-183h4q35 95 130 154t208 59q109 0 185.5 -27.5t120 -82t62.5 -127t19 -170.5v-680h-129v659q0 72 -13 127.5t-42.5 100t-83 68.5t-129.5 24q-150 0 -239.5 -102t-92.5 -261v-616h-129zM227 1245q10 80 58.5 138.5t124.5 58.5q65 0 153 -45t123 -45 q77 0 107 98h77q-12 -79 -58 -137t-120 -58q-61 0 -153 45q-11 5 -33.5 17t-34 17.5t-27.5 10.5t-28 5q-48 0 -78.5 -28t-30.5 -77h-80z" />
<glyph unicode="&#xf2;" d="M70 528q0 154 56 279t171 202.5t272 77.5q118 0 214 -44.5t158 -121.5t95 -177.5t33 -215.5t-33 -215.5t-95 -177.5t-158 -121.5t-214 -44.5q-157 0 -272 77.5t-171 202.5t-56 279zM199 528q0 -86 23.5 -165.5t68 -143.5t116.5 -102.5t162 -38.5t162 38.5t117 102.5 t68.5 143.5t23.5 165.5t-23.5 165.5t-68.5 144t-117 103t-162 38.5t-162 -38.5t-116.5 -103t-68 -144t-23.5 -165.5zM317 1493h160l215 -289h-104z" />
<glyph unicode="&#xf3;" d="M70 528q0 154 56 279t171 202.5t272 77.5q118 0 214 -44.5t158 -121.5t95 -177.5t33 -215.5t-33 -215.5t-95 -177.5t-158 -121.5t-214 -44.5q-157 0 -272 77.5t-171 202.5t-56 279zM199 528q0 -86 23.5 -165.5t68 -143.5t116.5 -102.5t162 -38.5t162 38.5t117 102.5 t68.5 143.5t23.5 165.5t-23.5 165.5t-68.5 144t-117 103t-162 38.5t-162 -38.5t-116.5 -103t-68 -144t-23.5 -165.5zM449 1204l215 289h159l-270 -289h-104z" />
<glyph unicode="&#xf4;" d="M70 528q0 154 56 279t171 202.5t272 77.5q118 0 214 -44.5t158 -121.5t95 -177.5t33 -215.5t-33 -215.5t-95 -177.5t-158 -121.5t-214 -44.5q-157 0 -272 77.5t-171 202.5t-56 279zM199 528q0 -86 23.5 -165.5t68 -143.5t116.5 -102.5t162 -38.5t162 38.5t117 102.5 t68.5 143.5t23.5 165.5t-23.5 165.5t-68.5 144t-117 103t-162 38.5t-162 -38.5t-116.5 -103t-68 -144t-23.5 -165.5zM266 1204l234 289h141l233 -289h-133l-176 209l-180 -209h-119z" />
<glyph unicode="&#xf5;" d="M70 528q0 154 56 279t171 202.5t272 77.5q118 0 214 -44.5t158 -121.5t95 -177.5t33 -215.5t-33 -215.5t-95 -177.5t-158 -121.5t-214 -44.5q-157 0 -272 77.5t-171 202.5t-56 279zM199 528q0 -86 23.5 -165.5t68 -143.5t116.5 -102.5t162 -38.5t162 38.5t117 102.5 t68.5 143.5t23.5 165.5t-23.5 165.5t-68.5 144t-117 103t-162 38.5t-162 -38.5t-116.5 -103t-68 -144t-23.5 -165.5zM248 1245q10 80 58 138.5t124 58.5q66 0 154 -45t123 -45q44 0 68 26t38 72h78q-12 -79 -58 -137t-120 -58q-62 0 -154 45q-11 5 -33.5 17t-34 17.5 t-27.5 10.5t-28 5q-47 0 -77.5 -28t-30.5 -77h-80z" />
<glyph unicode="&#xf6;" d="M70 528q0 154 56 279t171 202.5t272 77.5q118 0 214 -44.5t158 -121.5t95 -177.5t33 -215.5t-33 -215.5t-95 -177.5t-158 -121.5t-214 -44.5q-157 0 -272 77.5t-171 202.5t-56 279zM199 528q0 -86 23.5 -165.5t68 -143.5t116.5 -102.5t162 -38.5t162 38.5t117 102.5 t68.5 143.5t23.5 165.5t-23.5 165.5t-68.5 144t-117 103t-162 38.5t-162 -38.5t-116.5 -103t-68 -144t-23.5 -165.5zM319 1239v207h140v-207h-140zM682 1239v207h139v-207h-139z" />
<glyph unicode="&#xf7;" horiz-adv-x="1228" d="M100 461v108h1030v-108h-1030zM500 102q0 47 34 81t80 34t80.5 -34.5t34.5 -80.5q0 -43 -34.5 -78.5t-78.5 -35.5q-47 0 -81.5 34t-34.5 80zM500 928q0 47 34 80.5t80 33.5t80.5 -34t34.5 -80q0 -43 -34.5 -79t-78.5 -36q-47 0 -81.5 34.5t-34.5 80.5z" />
<glyph unicode="&#xf8;" d="M59 18l125 138q-114 147 -114 372q0 154 56 279t171 202.5t272 77.5q216 0 349 -139l106 115l45 -41l-111 -121q111 -153 111 -373q0 -115 -33 -215.5t-95 -177.5t-158 -121.5t-214 -44.5q-214 0 -344 140l-121 -132zM199 528q0 -159 73 -276l559 604q-98 123 -262 123 q-90 0 -162 -38.5t-116.5 -103t-68 -144t-23.5 -165.5zM309 199q96 -121 260 -121q90 0 162 38.5t117 102.5t68.5 143.5t23.5 165.5q0 157 -72 275z" />
<glyph unicode="&#xf9;" horiz-adv-x="1099" d="M121 371v686h129v-688q5 -148 69 -219.5t213 -71.5q64 0 117.5 23.5t90 63.5t62 94.5t37 115.5t11.5 127v555h129v-1057h-119v190h-4q-51 -105 -147.5 -163t-216.5 -58q-371 0 -371 402zM297 1493h160l215 -289h-105z" />
<glyph unicode="&#xfa;" horiz-adv-x="1099" d="M121 371v686h129v-688q5 -148 69 -219.5t213 -71.5q64 0 117.5 23.5t90 63.5t62 94.5t37 115.5t11.5 127v555h129v-1057h-119v190h-4q-51 -105 -147.5 -163t-216.5 -58q-371 0 -371 402zM428 1204l215 289h160l-271 -289h-104z" />
<glyph unicode="&#xfb;" horiz-adv-x="1099" d="M121 371v686h129v-688q5 -148 69 -219.5t213 -71.5q64 0 117.5 23.5t90 63.5t62 94.5t37 115.5t11.5 127v555h129v-1057h-119v190h-4q-51 -105 -147.5 -163t-216.5 -58q-371 0 -371 402zM246 1204l233 289h142l233 -289h-133l-176 209l-180 -209h-119z" />
<glyph unicode="&#xfc;" horiz-adv-x="1099" d="M121 371v686h129v-688q5 -148 69 -219.5t213 -71.5q64 0 117.5 23.5t90 63.5t62 94.5t37 115.5t11.5 127v555h129v-1057h-119v190h-4q-51 -105 -147.5 -163t-216.5 -58q-371 0 -371 402zM299 1239v207h139v-207h-139zM662 1239v207h139v-207h-139z" />
<glyph unicode="&#xfd;" horiz-adv-x="948" d="M4 1057h137l348 -901l326 901h129l-459 -1219q-30 -72 -52 -111.5t-53.5 -68.5t-71 -39t-101.5 -10q-81 3 -98 10v109q57 -11 88 -11q28 0 50 4.5t40 18t28.5 22.5t25 35.5t19.5 38t21 47.5l45 121zM352 1204l215 289h160l-270 -289h-105z" />
<glyph unicode="&#xfe;" horiz-adv-x="1175" d="M123 -391v1853h129v-606h4q40 110 141.5 170.5t225.5 60.5q117 0 209.5 -45t149.5 -123t86.5 -177.5t29.5 -213.5t-29.5 -213.5t-86.5 -177.5t-149.5 -123t-209.5 -45q-124 0 -225.5 61t-141.5 171h-4v-592h-129zM252 528q0 -86 20 -163t62 -143t116 -105t173 -39 q71 0 130 26t98.5 69.5t66.5 102t39 121.5t12 131t-12 131.5t-39 122t-66.5 102t-98.5 69.5t-130 26q-79 0 -143.5 -26t-106 -69.5t-69.5 -102.5t-40 -122t-12 -131z" />
<glyph unicode="&#xff;" horiz-adv-x="948" d="M4 1057h137l348 -901l326 901h129l-459 -1219q-30 -72 -52 -111.5t-53.5 -68.5t-71 -39t-101.5 -10q-81 3 -98 10v109q57 -11 88 -11q28 0 50 4.5t40 18t28.5 22.5t25 35.5t19.5 38t21 47.5l45 121zM223 1239v207h139v-207h-139zM586 1239v207h139v-207h-139z" />
<glyph unicode="&#x152;" horiz-adv-x="2199" d="M76 731q0 122 29.5 235.5t88.5 209t141.5 166.5t193.5 111t239 40q121 0 225 -37.5t172 -114.5v121h971v-119h-831v-528h753v-119h-753v-577h837v-119h-977v143q-69 -83 -178 -128.5t-219 -45.5q-128 0 -239 40t-193.5 111t-141.5 166.5t-88.5 209t-29.5 235.5zM215 731 q0 -131 37 -246.5t105.5 -204.5t174.5 -140.5t236 -51.5q117 0 203.5 37t156.5 125q34 41 37 112v680q0 95 -10 136q-22 60 -89.5 106.5t-146 68t-151.5 21.5q-130 0 -236 -51.5t-174.5 -140.5t-105.5 -204.5t-37 -246.5z" />
<glyph unicode="&#x153;" horiz-adv-x="1820" d="M74 528q0 89 18 170.5t55.5 152.5t92 123.5t133 82.5t172.5 30q139 0 238 -65.5t139 -194.5h4q44 118 148 189t241 71q230 0 341 -149.5t111 -443.5h-786q0 -80 20 -152.5t58.5 -132.5t103.5 -95.5t148 -35.5q250 0 325 262h129q-43 -177 -164.5 -274t-302.5 -97 q-134 0 -239.5 71.5t-136.5 197.5h-4q-37 -132 -138 -200.5t-241 -68.5q-97 0 -175.5 30t-132 81.5t-89.5 123t-52 152.5t-16 172zM203 504q0 -83 19 -156.5t58 -135t106 -98t155 -36.5q311 0 311 459q0 442 -309 442q-77 0 -137.5 -28.5t-98 -74.5t-61.5 -109.5 t-33.5 -127.5t-9.5 -135zM981 602h657q0 102 -36.5 186t-112 137.5t-178.5 53.5q-105 0 -181 -53t-112.5 -137t-36.5 -187z" />
<glyph unicode="&#x178;" horiz-adv-x="1251" d="M-20 1462h165l482 -741l479 741h166l-578 -860v-602h-139v602zM375 1614v207h139v-207h-139zM737 1614v207h140v-207h-140z" />
<glyph unicode="&#x2c6;" horiz-adv-x="378" d="M-115 1204l234 289h141l234 -289h-134l-176 209l-180 -209h-119z" />
<glyph unicode="&#x2dc;" horiz-adv-x="378" d="M-133 1245q10 80 58 138.5t124 58.5q66 0 154 -45t123 -45q44 0 68 26t38 72h78q-12 -79 -58 -137t-120 -58q-62 0 -154 45q-11 5 -33.5 17t-34 17.5t-27.5 10.5t-28 5q-47 0 -77.5 -28t-30.5 -77h-80z" />
<glyph unicode="&#x2000;" horiz-adv-x="990" />
<glyph unicode="&#x2001;" horiz-adv-x="1980" />
<glyph unicode="&#x2002;" horiz-adv-x="990" />
<glyph unicode="&#x2003;" horiz-adv-x="1980" />
<glyph unicode="&#x2004;" horiz-adv-x="660" />
<glyph unicode="&#x2005;" horiz-adv-x="495" />
<glyph unicode="&#x2006;" horiz-adv-x="330" />
<glyph unicode="&#x2007;" horiz-adv-x="330" />
<glyph unicode="&#x2008;" horiz-adv-x="247" />
<glyph unicode="&#x2009;" horiz-adv-x="396" />
<glyph unicode="&#x200a;" horiz-adv-x="110" />
<glyph unicode="&#x2010;" horiz-adv-x="757" d="M123 504v119h512v-119h-512z" />
<glyph unicode="&#x2011;" horiz-adv-x="757" d="M123 504v119h512v-119h-512z" />
<glyph unicode="&#x2012;" horiz-adv-x="757" d="M123 504v119h512v-119h-512z" />
<glyph unicode="&#x2013;" horiz-adv-x="1024" d="M0 504v119h1024v-119h-1024z" />
<glyph unicode="&#x2014;" horiz-adv-x="2048" d="M266 504v119h1516v-119h-1516z" />
<glyph unicode="&#x2018;" horiz-adv-x="569" d="M195 965v219q2 97 48 175t134 103v-88q-49 -17 -74 -75.5t-22 -116.5h86v-217h-172z" />
<glyph unicode="&#x2019;" horiz-adv-x="569" d="M193 965v88q49 17 74 75.5t22 116.5h-86v217h172v-219q-2 -97 -48 -175t-134 -103z" />
<glyph unicode="&#x201a;" horiz-adv-x="569" d="M193 -193q49 17 74 76t22 117h-86v217h172v-219q-2 -97 -48 -175.5t-134 -103.5v88z" />
<glyph unicode="&#x201c;" horiz-adv-x="757" d="M131 965v219q2 97 48 175t134 103v-88q-49 -17 -74 -75.5t-22 -116.5h86v-217h-172zM446 965v219q2 97 48.5 175t134.5 103v-88q-49 -17 -74.5 -76t-22.5 -116h86v-217h-172z" />
<glyph unicode="&#x201d;" horiz-adv-x="757" d="M129 965v88q49 17 74 75.5t22 116.5h-86v217h172v-219q-2 -97 -48 -175t-134 -103zM444 965v88q49 17 74.5 76t22.5 116h-86v217h172v-219q-2 -97 -48.5 -175t-134.5 -103z" />
<glyph unicode="&#x201e;" horiz-adv-x="757" d="M129 -193q49 17 74 76t22 117h-86v217h172v-219q-2 -97 -48 -175.5t-134 -103.5v88zM444 -193q49 17 74.5 76.5t22.5 116.5h-86v217h172v-219q-2 -97 -48.5 -175.5t-134.5 -103.5v88z" />
<glyph unicode="&#x2022;" horiz-adv-x="1024" d="M147 731q0 152 106.5 258.5t258.5 106.5t259.5 -106.5t107.5 -258.5t-107.5 -259t-259.5 -107t-258.5 107t-106.5 259z" />
<glyph unicode="&#x2026;" horiz-adv-x="2048" d="M256 0v217h172v-217h-172zM938 0v217h172v-217h-172zM1620 0v217h172v-217h-172z" />
<glyph unicode="&#x202f;" horiz-adv-x="396" />
<glyph unicode="&#x2039;" horiz-adv-x="530" d="M109 500v127l272 256v-138l-193 -182l193 -182v-137z" />
<glyph unicode="&#x203a;" horiz-adv-x="530" d="M150 244v137l192 182l-192 182v138l272 -256v-127z" />
<glyph unicode="&#x205f;" horiz-adv-x="495" />
<glyph unicode="&#x20ac;" d="M31 584l39 92h90q-2 10 -2 41q0 14 4 80h-131l37 92h104q48 255 188 401q155 168 400 168q253 0 381 -158l-56 -120q-133 161 -327 161q-188 0 -307 -137q-105 -120 -142 -315h682l-37 -92h-657q-6 -53 -6 -88q0 -23 2 -33h622l-38 -92h-578q27 -214 129 -346 q124 -154 324 -154q110 0 196 47q73 42 160 129v-158q-157 -133 -360 -133q-257 0 -414 183q-138 163 -168 432h-135z" />
<glyph unicode="&#x2122;" horiz-adv-x="2027" d="M168 1370v92h657v-92h-274v-752h-109v752h-274zM975 618v844h174l272 -684l265 684h174v-844h-109v746h-4l-299 -746h-62l-299 746h-4v-746h-108z" />
<glyph unicode="&#x25fc;" horiz-adv-x="1054" d="M0 0v1055h1055v-1055h-1055z" />
<hkern u1="T" u2="&#xfc;" k="94" />
<hkern u1="T" u2="&#xf6;" k="115" />
<hkern u1="T" u2="&#xf2;" k="115" />
<hkern u1="T" u2="&#xeb;" k="115" />
<hkern u1="T" u2="&#xea;" k="170" />
<hkern u1="T" u2="&#xe8;" k="170" />
<hkern u1="T" u2="&#xe5;" k="115" />
<hkern u1="T" u2="&#xe4;" k="57" />
<hkern u1="T" u2="&#xe3;" k="115" />
<hkern u1="T" u2="&#xe2;" k="115" />
<hkern u1="T" u2="&#xe0;" k="115" />
<hkern u1="V" u2="&#xf6;" k="57" />
<hkern u1="V" u2="&#xf4;" k="84" />
<hkern u1="V" u2="&#xeb;" k="57" />
<hkern u1="V" u2="&#xea;" k="57" />
<hkern u1="V" u2="&#xe8;" k="57" />
<hkern u1="V" u2="&#xe5;" k="57" />
<hkern u1="V" u2="&#xe4;" k="57" />
<hkern u1="V" u2="&#xe3;" k="57" />
<hkern u1="V" u2="&#xe2;" k="57" />
<hkern u1="V" u2="&#xe0;" k="57" />
<hkern u1="W" u2="&#xfc;" k="29" />
<hkern u1="W" u2="&#xf6;" k="29" />
<hkern u1="W" u2="&#xea;" k="29" />
<hkern u1="W" u2="&#xe4;" k="57" />
<hkern u1="Y" u2="&#xfc;" k="115" />
<hkern u1="Y" u2="&#xf6;" k="141" />
<hkern u1="&#x2018;" u2="&#x2018;" k="244" />
<hkern u1="&#x2019;" u2="&#x2019;" k="244" />
<hkern g1="A,Agrave,Aacute,Acircumflex,Atilde,Adieresis,Aring" 	g2="T" 	k="139" />
<hkern g1="A,Agrave,Aacute,Acircumflex,Atilde,Adieresis,Aring" 	g2="v" 	k="37" />
<hkern g1="A,Agrave,Aacute,Acircumflex,Atilde,Adieresis,Aring" 	g2="V" 	k="102" />
<hkern g1="A,Agrave,Aacute,Acircumflex,Atilde,Adieresis,Aring" 	g2="w" 	k="37" />
<hkern g1="A,Agrave,Aacute,Acircumflex,Atilde,Adieresis,Aring" 	g2="W" 	k="10" />
<hkern g1="A,Agrave,Aacute,Acircumflex,Atilde,Adieresis,Aring" 	g2="y,yacute,ydieresis" 	k="37" />
<hkern g1="A,Agrave,Aacute,Acircumflex,Atilde,Adieresis,Aring" 	g2="Y,Yacute,Ydieresis" 	k="152" />
<hkern g1="A,Agrave,Aacute,Acircumflex,Atilde,Adieresis,Aring" 	g2="quoteright" 	k="176" />
<hkern g1="f,uniFB01,uniFB02" 	g2="quoteright" 	k="-37" />
<hkern g1="f,uniFB01,uniFB02" 	g2="f,germandbls,uniFB01,uniFB02" 	k="37" />
<hkern g1="F" 	g2="A,Agrave,Aacute,Acircumflex,Atilde,Adieresis,Aring,AE" 	k="113" />
<hkern g1="F" 	g2="comma" 	k="264" />
<hkern g1="F" 	g2="period" 	k="264" />
<hkern g1="L" 	g2="T" 	k="188" />
<hkern g1="L" 	g2="V" 	k="188" />
<hkern g1="L" 	g2="W" 	k="113" />
<hkern g1="L" 	g2="y,yacute,ydieresis" 	k="76" />
<hkern g1="L" 	g2="Y,Yacute,Ydieresis" 	k="227" />
<hkern g1="L" 	g2="quoteright" 	k="201" />
<hkern g1="P" 	g2="A,Agrave,Aacute,Acircumflex,Atilde,Adieresis,Aring,AE" 	k="152" />
<hkern g1="P" 	g2="comma" 	k="313" />
<hkern g1="P" 	g2="period" 	k="313" />
<hkern g1="r" 	g2="comma" 	k="188" />
<hkern g1="r" 	g2="period" 	k="188" />
<hkern g1="r" 	g2="c,ccedilla" 	k="37" />
<hkern g1="r" 	g2="d" 	k="37" />
<hkern g1="r" 	g2="e,egrave,eacute,ecircumflex,edieresis" 	k="37" />
<hkern g1="r" 	g2="n,ntilde" 	k="-37" />
<hkern g1="r" 	g2="o,ograve,oacute,ocircumflex,otilde,odieresis,oslash,oe" 	k="37" />
<hkern g1="r" 	g2="q" 	k="37" />
<hkern g1="r" 	g2="hyphen" 	k="113" />
<hkern g1="R" 	g2="T" 	k="-12" />
<hkern g1="R" 	g2="V" 	k="-12" />
<hkern g1="R" 	g2="W" 	k="-12" />
<hkern g1="R" 	g2="y,yacute,ydieresis" 	k="-49" />
<hkern g1="R" 	g2="Y,Yacute,Ydieresis" 	k="27" />
<hkern g1="T" 	g2="w" 	k="227" />
<hkern g1="T" 	g2="y,yacute,ydieresis" 	k="227" />
<hkern g1="T" 	g2="A,Agrave,Aacute,Acircumflex,Atilde,Adieresis,Aring,AE" 	k="139" />
<hkern g1="T" 	g2="comma" 	k="227" />
<hkern g1="T" 	g2="period" 	k="227" />
<hkern g1="T" 	g2="c,ccedilla" 	k="227" />
<hkern g1="T" 	g2="e,egrave,eacute,ecircumflex,edieresis" 	k="227" />
<hkern g1="T" 	g2="o,ograve,oacute,ocircumflex,otilde,odieresis,oslash,oe" 	k="227" />
<hkern g1="T" 	g2="hyphen" 	k="264" />
<hkern g1="T" 	g2="a,agrave,aacute,acircumflex,atilde,adieresis,aring,ae" 	k="227" />
<hkern g1="T" 	g2="i,igrave,iacute,icircumflex,idieresis" 	k="-49" />
<hkern g1="T" 	g2="r" 	k="188" />
<hkern g1="T" 	g2="s" 	k="227" />
<hkern g1="T" 	g2="u,ugrave,uacute,ucircumflex,udieresis" 	k="188" />
<hkern g1="T" 	g2="colon" 	k="227" />
<hkern g1="T" 	g2="semicolon" 	k="227" />
<hkern g1="v" 	g2="comma" 	k="152" />
<hkern g1="v" 	g2="period" 	k="152" />
<hkern g1="V" 	g2="y,yacute,ydieresis" 	k="37" />
<hkern g1="V" 	g2="A,Agrave,Aacute,Acircumflex,Atilde,Adieresis,Aring,AE" 	k="113" />
<hkern g1="V" 	g2="comma" 	k="264" />
<hkern g1="V" 	g2="period" 	k="264" />
<hkern g1="V" 	g2="e,egrave,eacute,ecircumflex,edieresis" 	k="113" />
<hkern g1="V" 	g2="o,ograve,oacute,ocircumflex,otilde,odieresis,oslash,oe" 	k="113" />
<hkern g1="V" 	g2="hyphen" 	k="113" />
<hkern g1="V" 	g2="a,agrave,aacute,acircumflex,atilde,adieresis,aring,ae" 	k="113" />
<hkern g1="V" 	g2="i,igrave,iacute,icircumflex,idieresis" 	k="-12" />
<hkern g1="V" 	g2="r" 	k="76" />
<hkern g1="V" 	g2="u,ugrave,uacute,ucircumflex,udieresis" 	k="76" />
<hkern g1="V" 	g2="colon" 	k="152" />
<hkern g1="V" 	g2="semicolon" 	k="152" />
<hkern g1="w" 	g2="comma" 	k="113" />
<hkern g1="w" 	g2="period" 	k="113" />
<hkern g1="W" 	g2="A,Agrave,Aacute,Acircumflex,Atilde,Adieresis,Aring,AE" 	k="37" />
<hkern g1="W" 	g2="comma" 	k="152" />
<hkern g1="W" 	g2="period" 	k="152" />
<hkern g1="W" 	g2="e,egrave,eacute,ecircumflex,edieresis" 	k="37" />
<hkern g1="W" 	g2="o,ograve,oacute,ocircumflex,otilde,odieresis,oslash,oe" 	k="37" />
<hkern g1="W" 	g2="a,agrave,aacute,acircumflex,atilde,adieresis,aring,ae" 	k="76" />
<hkern g1="W" 	g2="i,igrave,iacute,icircumflex,idieresis" 	k="-49" />
<hkern g1="W" 	g2="r" 	k="37" />
<hkern g1="W" 	g2="u,ugrave,uacute,ucircumflex,udieresis" 	k="37" />
<hkern g1="W" 	g2="colon" 	k="37" />
<hkern g1="W" 	g2="semicolon" 	k="37" />
<hkern g1="y,yacute,ydieresis" 	g2="comma" 	k="188" />
<hkern g1="y,yacute,ydieresis" 	g2="period" 	k="188" />
<hkern g1="Y,Yacute,Ydieresis" 	g2="v" 	k="113" />
<hkern g1="Y,Yacute,Ydieresis" 	g2="A,Agrave,Aacute,Acircumflex,Atilde,Adieresis,Aring,AE" 	k="152" />
<hkern g1="Y,Yacute,Ydieresis" 	g2="comma" 	k="252" />
<hkern g1="Y,Yacute,Ydieresis" 	g2="period" 	k="203" />
<hkern g1="Y,Yacute,Ydieresis" 	g2="e,egrave,eacute,ecircumflex,edieresis" 	k="188" />
<hkern g1="Y,Yacute,Ydieresis" 	g2="o,ograve,oacute,ocircumflex,otilde,odieresis,oslash,oe" 	k="188" />
<hkern g1="Y,Yacute,Ydieresis" 	g2="q" 	k="188" />
<hkern g1="Y,Yacute,Ydieresis" 	g2="hyphen" 	k="227" />
<hkern g1="Y,Yacute,Ydieresis" 	g2="a,agrave,aacute,acircumflex,atilde,adieresis,aring,ae" 	k="188" />
<hkern g1="Y,Yacute,Ydieresis" 	g2="i,igrave,iacute,icircumflex,idieresis" 	k="14" />
<hkern g1="Y,Yacute,Ydieresis" 	g2="u,ugrave,uacute,ucircumflex,udieresis" 	k="152" />
<hkern g1="Y,Yacute,Ydieresis" 	g2="colon" 	k="188" />
<hkern g1="Y,Yacute,Ydieresis" 	g2="semicolon" 	k="188" />
<hkern g1="Y,Yacute,Ydieresis" 	g2="p" 	k="152" />
<hkern g1="quoteright" 	g2="s" 	k="227" />
<hkern g1="quoteright" 	g2="t" 	k="37" />
</font>
</defs></svg> 